[gd_scene load_steps=2 format=2]

[ext_resource path="res://domains/commands/change_map.gd" type="Script" id=1]

[node name="change_map" type="Node2D" index="0"]

script = ExtResource( 1 )
map_id = ""
spawn_point = ""


