[gd_scene load_steps=2 format=2]

[ext_resource path="res://domains/commands/choice.gd" type="Script" id=1]

[node name="choice" type="Node2D" index="0"]

script = ExtResource( 1 )
question = ""
option0 = ""
option0_target = ""
option1 = ""
option1_target = ""


