[gd_scene load_steps=28 format=2]

[ext_resource path="res://domains/map.tscn" type="PackedScene" id=1]
[ext_resource path="res://assets/tileset/sideview-sample.tres" type="TileSet" id=2]
[ext_resource path="res://assets/texture/tyapartment-night.png" type="Texture" id=3]
[ext_resource path="res://assets/texture/daynight-kitchen-door.png" type="Texture" id=4]
[ext_resource path="res://domains/bodies/prop.tscn" type="PackedScene" id=5]
[ext_resource path="res://domains/bodies/doorway.tscn" type="PackedScene" id=6]
[ext_resource path="res://domains/scene_container.tscn" type="PackedScene" id=7]
[ext_resource path="res://domains/scene.tscn" type="PackedScene" id=8]
[ext_resource path="res://domains/commands/change_map.tscn" type="PackedScene" id=9]
[ext_resource path="res://domains/commands/speech.tscn" type="PackedScene" id=10]
[ext_resource path="res://domains/bodies/hasha.tscn" type="PackedScene" id=11]
[ext_resource path="res://domains/commands/move_body.tscn" type="PackedScene" id=12]
[ext_resource path="res://domains/commands/make_body_look_at.tscn" type="PackedScene" id=13]
[ext_resource path="res://domains/commands/move_camera.tscn" type="PackedScene" id=14]
[ext_resource path="res://domains/commands/set_pos.tscn" type="PackedScene" id=15]
[ext_resource path="res://domains/commands/wait.tscn" type="PackedScene" id=16]
[ext_resource path="res://domains/commands/playBGM.tscn" type="PackedScene" id=17]
[ext_resource path="res://assets/bgm/life_in_corrupted_binary.ogg" type="AudioStream" id=18]
[ext_resource path="res://domains/commands/fade_overlay.tscn" type="PackedScene" id=19]
[ext_resource path="res://domains/commands/set_flag.tscn" type="PackedScene" id=20]
[ext_resource path="res://assets/texture/notebook.png" type="Texture" id=21]
[ext_resource path="res://domains/scenes/balcony_check.tscn" type="PackedScene" id=22]
[ext_resource path="res://addons/maulwed_nodes/spawn_point/script.gd" type="Script" id=23]
[ext_resource path="res://addons/maulwed_nodes/spawn_point/icon.png" type="Texture" id=24]
[ext_resource path="res://domains/commands/playSFX.tscn" type="PackedScene" id=25]
[ext_resource path="res://assets/sfx/door.wav" type="AudioStream" id=26]
[ext_resource path="res://domains/commands/toggle_hidden.tscn" type="PackedScene" id=27]

[node name="map" instance=ExtResource( 1 )]

map_name = "Ty's Apartment"

[node name="bounds" parent="." index="0"]

editor/display_folded = false

[node name="top_left" parent="bounds" index="0"]

position = Vector2( -96, -32 )
_sections_unfolded = [ "Transform" ]

[node name="bottom_right" parent="bounds" index="1"]

position = Vector2( 1760, 328 )
_sections_unfolded = [ "Transform" ]

[node name="terrain" parent="." index="1"]

tile_set = ExtResource( 2 )
tile_data = PoolIntArray( -262110, 3, 0, -262109, 3, 0, -262108, 3, 0, -262107, 3, 0, -262106, 3, 0, -262105, 3, 0, -262104, 3, 0, -262103, 3, 0, -262102, 3, 0, -262101, 3, 0, -262100, 3, 0, -262099, 3, 0, -262098, 3, 0, -262097, 3, 0, -196574, 3, 0, -196573, 3, 0, -196572, 3, 0, -196571, 3, 0, -196570, 3, 0, -196569, 3, 0, -196568, 3, 0, -196567, 3, 0, -196566, 3, 0, -196565, 3, 0, -196564, 3, 0, -196563, 3, 0, -196562, 3, 0, -196561, 3, 0, -131038, 3, 0, -131037, 3, 0, -131036, 3, 0, -131035, 3, 0, -131034, 3, 0, -131033, 3, 0, -131032, 3, 0, -131031, 3, 0, -131030, 3, 0, -131029, 3, 0, -131028, 3, 0, -131027, 3, 0, -131026, 3, 0, -131025, 3, 0, -65502, 3, 0, -65501, 3, 0, -65500, 3, 0, -65499, 3, 0, -65498, 3, 0, -65497, 3, 0, -65496, 3, 0, -65495, 3, 0, -65494, 3, 0, -65493, 3, 0, -65492, 3, 0, -65491, 3, 0, -65490, 3, 0, -65489, 3, 0, 0, 1, 0, 1, 1, 0, 2, 1, 0, 3, 1, 0, 4, 1, 0, 5, 1, 0, 6, 1, 0, 7, 1, 0, 8, 1, 0, 9, 1, 0, 10, 1, 0, 11, 1, 0, 12, 1, 0, 13, 1, 0, 14, 1, 0, 15, 1, 0, 16, 1, 0, 17, 1, 0, 18, 1, 0, 19, 1, 0, 20, 1, 0, 21, 1, 0, 22, 1, 0, 23, 1, 0, 24, 1, 0, 25, 1, 0, 26, 1, 0, 27, 1, 0, 28, 1, 0, 29, 1, 0, 30, 1, 0, 31, 1, 0, 32, 1, 0, 33, 1, 0, 34, 3, 0, 35, 3, 0, 36, 3, 0, 37, 3, 0, 38, 3, 0, 39, 3, 0, 40, 3, 0, 41, 3, 0, 42, 3, 0, 43, 3, 0, 44, 3, 0, 45, 3, 0, 46, 3, 0, 47, 3, 0, 65536, 1, 0, 65537, 1, 0, 65538, 1, 0, 65539, 1, 0, 65540, 1, 0, 65541, 1, 0, 65542, 1, 0, 65543, 1, 0, 65544, 1, 0, 65545, 1, 0, 65546, 1, 0, 65547, 1, 0, 65548, 1, 0, 65549, 1, 0, 65550, 1, 0, 65551, 1, 0, 65552, 1, 0, 65553, 1, 0, 65554, 1, 0, 65555, 1, 0, 65556, 1, 0, 65557, 1, 0, 65558, 1, 0, 65559, 1, 0, 65560, 1, 0, 65561, 1, 0, 65562, 1, 0, 65563, 1, 0, 65564, 1, 0, 65565, 1, 0, 65566, 1, 0, 65567, 1, 0, 65568, 1, 0, 65569, 1, 0, 65570, 3, 0, 65571, 3, 0, 65572, 3, 0, 65573, 3, 0, 65574, 3, 0, 65575, 3, 0, 65576, 3, 0, 65577, 3, 0, 65578, 3, 0, 65579, 3, 0, 65580, 3, 0, 65581, 3, 0, 65582, 3, 0, 65583, 3, 0, 131072, 1, 0, 131073, 1, 0, 131074, 1, 0, 131075, 1, 0, 131076, 1, 0, 131077, 3, 0, 131078, 3, 0, 131079, 3, 0, 131080, 1, 0, 131081, 3, 0, 131082, 3, 0, 131083, 3, 0, 131084, 1, 0, 131085, 1, 0, 131086, 1, 0, 131087, 1, 0, 131088, 1, 0, 131089, 1, 0, 131090, 1, 0, 131091, 1, 0, 131092, 1, 0, 131093, 1, 0, 131094, 1, 0, 131095, 1, 0, 131096, 1, 0, 131097, 1, 0, 131098, 1, 0, 131099, 1, 0, 131100, 1, 0, 131101, 1, 0, 131102, 1, 0, 131103, 1, 0, 131104, 1, 0, 131105, 1, 0, 131106, 3, 0, 131107, 3, 0, 131108, 3, 0, 131109, 3, 0, 131110, 3, 0, 131111, 3, 0, 131112, 3, 0, 131113, 3, 0, 131114, 3, 0, 131115, 3, 0, 131116, 3, 0, 131117, 3, 0, 131118, 3, 0, 131119, 3, 0, 196608, 1, 0, 196609, 1, 0, 196610, 1, 0, 196611, 1, 0, 196612, 1, 0, 196613, 3, 0, 196614, 3, 0, 196615, 3, 0, 196616, 1, 0, 196617, 3, 0, 196618, 3, 0, 196619, 3, 0, 196620, 1, 0, 196621, 1, 0, 196622, 1, 0, 196623, 1, 0, 196624, 1, 0, 196625, 1, 0, 196626, 1, 0, 196627, 1, 0, 196628, 1, 0, 196629, 1, 0, 196630, 1, 0, 196631, 1, 0, 196632, 1, 0, 196633, 1, 0, 196634, 1, 0, 196635, 1, 0, 196636, 1, 0, 196637, 1, 0, 196638, 1, 0, 196639, 1, 0, 196640, 1, 0, 196641, 1, 0, 196642, 3, 0, 196643, 3, 0, 196644, 3, 0, 196645, 3, 0, 196646, 3, 0, 196647, 3, 0, 196648, 3, 0, 196649, 3, 0, 196650, 3, 0, 196651, 3, 0, 196652, 3, 0, 196653, 3, 0, 196654, 3, 0, 196655, 3, 0, 262144, 1, 0, 262145, 1, 0, 262146, 1, 0, 262147, 1, 0, 262148, 1, 0, 262149, 3, 0, 262150, 3, 0, 262151, 3, 0, 262152, 1, 0, 262153, 3, 0, 262154, 3, 0, 262155, 3, 0, 262156, 1, 0, 262157, 1, 0, 262158, 1, 0, 262159, 1, 0, 262160, 1, 0, 262161, 1, 0, 262162, 1, 0, 262163, 1, 0, 262164, 1, 0, 262165, 1, 0, 262166, 1, 0, 262167, 1, 0, 262168, 1, 0, 262169, 1, 0, 262170, 1, 0, 262171, 1, 0, 262172, 1, 0, 262173, 1, 0, 262174, 1, 0, 262175, 1, 0, 262176, 1, 0, 262177, 1, 0, 262178, 3, 0, 262179, 3, 0, 262180, 3, 0, 262181, 3, 0, 262182, 3, 0, 262183, 3, 0, 262184, 3, 0, 262185, 3, 0, 262186, 3, 0, 262187, 3, 0, 262188, 3, 0, 262189, 3, 0, 262190, 3, 0, 262191, 3, 0, 327680, 1, 0, 327681, 1, 0, 327682, 1, 0, 327683, 1, 0, 327684, 1, 0, 327685, 3, 0, 327686, 3, 0, 327687, 3, 0, 327688, 1, 0, 327689, 3, 0, 327690, 3, 0, 327691, 3, 0, 327692, 1, 0, 327693, 1, 0, 327694, 1, 0, 327695, 1, 0, 327696, 1, 0, 327697, 1, 0, 327698, 1, 0, 327699, 1, 0, 327700, 1, 0, 327701, 1, 0, 327702, 1, 0, 327703, 1, 0, 327704, 1, 0, 327705, 1, 0, 327706, 1, 0, 327707, 1, 0, 327708, 1, 0, 327709, 1, 0, 327710, 1, 0, 327711, 1, 0, 327712, 1, 0, 327713, 1, 0, 327714, 3, 0, 327715, 3, 0, 327716, 3, 0, 327717, 3, 0, 327718, 3, 0, 327719, 3, 0, 327720, 3, 0, 327721, 3, 0, 327722, 3, 0, 327723, 3, 0, 327724, 3, 0, 327725, 3, 0, 327726, 3, 0, 327727, 3, 0, 393216, 1, 0, 393217, 1, 0, 393218, 1, 0, 393219, 1, 0, 393220, 1, 0, 393221, 3, 0, 393222, 3, 0, 393223, 3, 0, 393224, 1, 0, 393225, 3, 0, 393226, 3, 0, 393227, 3, 0, 393228, 1, 0, 393229, 1, 0, 393230, 1, 0, 393231, 1, 0, 393232, 1, 0, 393233, 3, 0, 393234, 3, 0, 393235, 3, 0, 393236, 3, 0, 393237, 1, 0, 393238, 1, 0, 393239, 1, 0, 393240, 3, 0, 393241, 3, 0, 393242, 3, 0, 393243, 3, 0, 393244, 3, 0, 393245, 3, 0, 393246, 3, 0, 393247, 3, 0, 393248, 1, 0, 393249, 1, 0, 393250, 3, 0, 393251, 3, 0, 393252, 3, 0, 393253, 3, 0, 393254, 0, 0, 393255, 3, 0, 393256, 3, 0, 393257, 3, 0, 393258, 3, 0, 393259, 3, 0, 393260, 3, 0, 393261, 3, 0, 393262, 3, 0, 393263, 3, 0, 458752, 1, 0, 458753, 1, 0, 458754, 1, 0, 458755, 1, 0, 458756, 1, 0, 458757, 3, 0, 458758, 3, 0, 458759, 3, 0, 458760, 1, 0, 458761, 3, 0, 458762, 3, 0, 458763, 3, 0, 458764, 1, 0, 458765, 1, 0, 458766, 1, 0, 458767, 3, 0, 458768, 3, 0, 458769, 1, 0, 458770, 3, 0, 458771, 3, 0, 458772, 1, 0, 458773, 3, 0, 458774, 3, 0, 458775, 1, 0, 458776, 3, 0, 458777, 3, 0, 458778, 3, 0, 458779, 3, 0, 458780, 3, 0, 458781, 3, 0, 458782, 3, 0, 458783, 3, 0, 458784, 1, 0, 458785, 1, 0, 458786, 3, 0, 458787, 3, 0, 458788, 3, 0, 458789, 3, 0, 458790, 0, 0, 458791, 3, 0, 458792, 3, 0, 458793, 3, 0, 458794, 3, 0, 458795, 3, 0, 458796, 3, 0, 458797, 3, 0, 458798, 3, 0, 458799, 3, 0, 524322, 0, 0, 524323, 0, 0, 524324, 0, 0, 524325, 0, 0, 524326, 0, 0, 524327, 3, 0, 524328, 3, 0, 524329, 3, 0, 524330, 3, 0, 524331, 3, 0, 524332, 3, 0, 524333, 3, 0, 524334, 3, 0, 524335, 3, 0, 589858, 0, 0, 589859, 0, 0, 589860, 0, 0, 589861, 0, 0, 589862, 0, 0, 589863, 3, 0, 589864, 3, 0, 589865, 3, 0, 589866, 3, 0, 589867, 3, 0, 589868, 3, 0, 589869, 3, 0, 589870, 3, 0, 589871, 3, 0, 655394, 3, 0, 655395, 3, 0, 655396, 3, 0, 655397, 3, 0, 655398, 3, 0, 655399, 3, 0, 655400, 3, 0, 655401, 3, 0, 655402, 3, 0, 655403, 3, 0, 655404, 3, 0, 655405, 3, 0, 655406, 3, 0, 655407, 3, 0, 720930, 3, 0, 720931, 3, 0, 720932, 3, 0, 720933, 3, 0, 720934, 3, 0, 720935, 3, 0, 720936, 3, 0, 720937, 3, 0, 720938, 3, 0, 720939, 3, 0, 720940, 3, 0, 720941, 3, 0, 720942, 3, 0, 720943, 3, 0, 786466, 3, 0, 786467, 3, 0, 786468, 3, 0, 786469, 3, 0, 786470, 3, 0, 786471, 3, 0, 786472, 3, 0, 786473, 3, 0, 786474, 3, 0, 786475, 3, 0, 786476, 3, 0, 786477, 3, 0, 786478, 3, 0, 786479, 3, 0 )

[node name="boundaries" type="StaticBody2D" parent="terrain" index="0"]

editor/display_folded = true
position = Vector2( 0, 256 )
input_pickable = false
collision_layer = 1
collision_mask = 1
constant_linear_velocity = Vector2( 0, 0 )
constant_angular_velocity = 0.0
friction = 1.0
bounce = 0.0

[node name="shape" type="CollisionPolygon2D" parent="terrain/boundaries" index="0"]

build_mode = 0
polygon = PoolVector2Array( 0, -256, 1216, -256, 1216, 0, 0, 0, 0, -256, -32, -288, -32, 32, 1248, 32, 1248, -288, -32, -288 )

[node name="scenario" type="Sprite" parent="terrain" index="1"]

position = Vector2( -32, -32 )
texture = ExtResource( 3 )
centered = false
_sections_unfolded = [ "Offset" ]

[node name="sprite" type="Sprite" parent="terrain/scenario" index="0"]

position = Vector2( 242, 198 )
texture = ExtResource( 4 )
hframes = 2
_sections_unfolded = [ "Animation", "Transform" ]

[node name="kitchen-lightsout" parent="bodies" index="0" instance=ExtResource( 5 )]

position = Vector2( 208, 256 )
_sections_unfolded = [ "Collision", "Transform" ]

[node name="sprite" type="Sprite" parent="bodies/kitchen-lightsout" index="4"]

texture = ExtResource( 4 )
offset = Vector2( 2, -90 )
hframes = 2
frame = 1
_sections_unfolded = [ "Animation", "Offset", "Region" ]

[node name="doorway" parent="bodies" index="1" instance=ExtResource( 6 )]

editor/display_folded = true
position = Vector2( 208, 256 )
interactable = 3

[node name="scenes" parent="bodies/doorway" index="4" instance=ExtResource( 7 )]

[node name="to_kitchen" parent="bodies/doorway/scenes" index="0" instance=ExtResource( 8 )]

on_interact = true

[node name="change_map" parent="bodies/doorway/scenes/to_kitchen" index="0" instance=ExtResource( 9 )]

map_id = "kitchen"
spawn_point = "from_apt_main"

[node name="bathroom_door" parent="bodies" index="2" instance=ExtResource( 6 )]

editor/display_folded = true
position = Vector2( 336, 256 )
interactable = 1

[node name="scenes" parent="bodies/bathroom_door" index="4" instance=ExtResource( 7 )]

[node name="bathroom" parent="bodies/bathroom_door/scenes" index="0" instance=ExtResource( 8 )]

on_interact = true

[node name="no_need" parent="bodies/bathroom_door/scenes/bathroom" index="0" instance=ExtResource( 10 )]

text = "The bathroom.

Don't need to go right now."
speaker_name = "Tyche"

[node name="hasha" parent="bodies" index="3" instance=ExtResource( 11 )]

position = Vector2( 368, -192 )
default_flipped = 1

[node name="prop" parent="bodies" index="4" instance=ExtResource( 5 )]

position = Vector2( 832, 256 )
_sections_unfolded = [ "Collision", "Transform" ]
interactable = 1

[node name="notif" parent="bodies/prop" index="3"]

position = Vector2( 0, -128 )

[node name="scenes" parent="bodies/prop" index="4" instance=ExtResource( 7 )]

_sections_unfolded = [ "Transform" ]

[node name="setting_up" parent="bodies/prop/scenes" index="0" instance=ExtResource( 8 )]

conditions = PoolStringArray( "pe.setup_movie >= 1" )
on_interact = true
one_time_only = true

[node name="move_ty_to_place" parent="bodies/prop/scenes/setting_up" index="0" instance=ExtResource( 12 )]

body_name = "player"
wait = true

[node name="target" type="Position2D" parent="bodies/prop/scenes/setting_up/move_ty_to_place" index="0"]

position = Vector2( -80, 0 )
_sections_unfolded = [ "Transform" ]

[node name="make_body_look_at2" parent="bodies/prop/scenes/setting_up" index="1" instance=ExtResource( 13 )]

body_name = "player"
direction = 1

[node name="surreal" parent="bodies/prop/scenes/setting_up" index="2" instance=ExtResource( 10 )]

text = "Well, here it is.

Latest technology of televisions.

It sure is here.

.....

...Did I almost die a few minutes ago?

...It feels so surreal."
speaker_name = "Tyche"

[node name="hey!" parent="bodies/prop/scenes/setting_up" index="3" instance=ExtResource( 10 )]

text = "Are you talking to your laptop?"
speaker_name = "Hasha"
centered = true

[node name="move_camera" parent="bodies/prop/scenes/setting_up" index="4" instance=ExtResource( 14 )]

time = 0.5

[node name="target" type="Position2D" parent="bodies/prop/scenes/setting_up/move_camera" index="0"]

position = Vector2( -144, 0 )
_sections_unfolded = [ "Transform" ]

[node name="set_pos" parent="bodies/prop/scenes/setting_up" index="5" instance=ExtResource( 15 )]

body_name = "hasha"
use_spawn_point = false
target_spawn = "initial"

[node name="target" type="Position2D" parent="bodies/prop/scenes/setting_up/set_pos" index="0"]

position = Vector2( -512, 0 )
_sections_unfolded = [ "Transform" ]

[node name="move_body" parent="bodies/prop/scenes/setting_up" index="6" instance=ExtResource( 12 )]

editor/display_folded = true
body_name = "hasha"
wait = true

[node name="target" type="Position2D" parent="bodies/prop/scenes/setting_up/move_body" index="0"]

position = Vector2( -336, 0 )
_sections_unfolded = [ "Transform" ]

[node name="oh_nothing" parent="bodies/prop/scenes/setting_up" index="7" instance=ExtResource( 10 )]

text = "Just me thinking about being crazy again."
speaker_name = "Tyche"

[node name="the_usual" parent="bodies/prop/scenes/setting_up" index="8" instance=ExtResource( 10 )]

text = "Oh, the usual?"
speaker_name = "Hasha"

[node name="make_body_look_at" parent="bodies/prop/scenes/setting_up" index="9" instance=ExtResource( 13 )]

body_name = "player"

[node name="yeah_the_usual" parent="bodies/prop/scenes/setting_up" index="10" instance=ExtResource( 10 )]

text = "I'm not always sulking!

.....

.....

Okay, I am sulking most of
the time, I guess."
speaker_name = "Tyche"

[node name="wait" parent="bodies/prop/scenes/setting_up" index="11" instance=ExtResource( 16 )]

time = 2.0

[node name="coyote_ithink" parent="bodies/prop/scenes/setting_up" index="12" instance=ExtResource( 10 )]

text = "I think I was chased by a Wild coyote."
speaker_name = "Tyche"

[node name="coyote_yousay" parent="bodies/prop/scenes/setting_up" index="13" instance=ExtResource( 10 )]

text = "Wait, what?

You mean, like, a guy harrassing you?"
speaker_name = "Hasha"

[node name="i_maced_it" parent="bodies/prop/scenes/setting_up" index="14" instance=ExtResource( 10 )]

text = "Outside, before I got home.

On the park next to your place.

I maced it from the top of a van.

It was an \"it\".

Wild. Snarling.
On all fours."
speaker_name = "Tyche"

[node name="whateven" parent="bodies/prop/scenes/setting_up" index="15" instance=ExtResource( 10 )]

text = "....."
speaker_name = "Hasha"

[node name="crazy_iknow" parent="bodies/prop/scenes/setting_up" index="16" instance=ExtResource( 10 )]

text = "This is the part you call me crazy."
speaker_name = "Tyche"

[node name="i_believe_u" parent="bodies/prop/scenes/setting_up" index="17" instance=ExtResource( 10 )]

text = "No, no! I believe you, I just...

We're definitely watching a scary
movie tonight, right?"
speaker_name = "Hasha"

[node name="crazy_iknow2" parent="bodies/prop/scenes/setting_up" index="18" instance=ExtResource( 10 )]

text = "Heh, sure."
speaker_name = "Tyche"

[node name="playBGM" parent="bodies/prop/scenes/setting_up" index="19" instance=ExtResource( 17 )]

audio_stream = ExtResource( 18 )
fade_time = 4.0
seek_time = 4.0

[node name="fade_overlay" parent="bodies/prop/scenes/setting_up" index="20" instance=ExtResource( 19 )]

seconds = 4.0
wait = true

[node name="wait2" parent="bodies/prop/scenes/setting_up" index="21" instance=ExtResource( 16 )]

time = 4.0

[node name="and_hey" parent="bodies/prop/scenes/setting_up" index="22" instance=ExtResource( 10 )]

text = "Hey, Hash?"
speaker_name = "Tyche"
auto_scroll = true
auto_scroll_time = 2.0

[node name="hmm" parent="bodies/prop/scenes/setting_up" index="23" instance=ExtResource( 10 )]

text = "...Hm?"
speaker_name = "Hasha"
auto_scroll = true
auto_scroll_time = 2.0

[node name="thanks" parent="bodies/prop/scenes/setting_up" index="24" instance=ExtResource( 10 )]

text = "Thanks."
speaker_name = "Tyche"
auto_scroll = true
auto_scroll_time = 2.0

[node name="forwhat" parent="bodies/prop/scenes/setting_up" index="25" instance=ExtResource( 10 )]

text = "For what?"
speaker_name = "Hasha"
auto_scroll = true
auto_scroll_time = 2.0

[node name="just_thanks" parent="bodies/prop/scenes/setting_up" index="26" instance=ExtResource( 10 )]

text = "Just thanks."
speaker_name = "Tyche"
auto_scroll = true
auto_scroll_time = 2.0

[node name="weirdo" parent="bodies/prop/scenes/setting_up" index="27" instance=ExtResource( 10 )]

text = "Weirdo."
speaker_name = "Hasha"
auto_scroll = true
auto_scroll_time = 2.0

[node name="move_camera2" parent="bodies/prop/scenes/setting_up" index="28" instance=ExtResource( 14 )]

reset = true
time = 0.1

[node name="change_map" parent="bodies/prop/scenes/setting_up" index="29" instance=ExtResource( 9 )]

map_id = "title-splash"
spawn_point = "initial"

[node name="set_flag" parent="bodies/prop/scenes/setting_up" index="30" instance=ExtResource( 20 )]

flag_name = "time"
value = 39600

[node name="sprite" type="Sprite" parent="bodies/prop" index="5"]

position = Vector2( 0, -64 )
texture = ExtResource( 21 )
offset = Vector2( 0, -16 )
hframes = 3
_sections_unfolded = [ "Animation", "Offset" ]

[node name="balcony" parent="bodies" index="5" instance=ExtResource( 5 )]

editor/display_folded = true
position = Vector2( 1200, 256 )
interactable = 1

[node name="notif" parent="bodies/balcony" index="3"]

position = Vector2( 0, -144 )

[node name="scenes" parent="bodies/balcony" index="4" instance=ExtResource( 7 )]

[node name="balcony_check" parent="bodies/balcony/scenes" index="0" instance=ExtResource( 22 )]

[node name="overlay" parent="." index="3"]

tile_set = ExtResource( 2 )
tile_data = PoolIntArray( -196611, 0, 0, -196610, 0, 0, -196609, 0, 0, -262144, 0, 0, -262143, 0, 0, -262142, 0, 0, -262141, 0, 0, -262140, 0, 0, -262139, 0, 0, -262138, 0, 0, -262137, 0, 0, -262136, 0, 0, -262135, 0, 0, -262134, 0, 0, -262133, 0, 0, -262132, 0, 0, -262131, 0, 0, -262130, 0, 0, -262129, 0, 0, -262128, 0, 0, -262127, 0, 0, -262126, 0, 0, -262125, 0, 0, -262124, 0, 0, -262123, 0, 0, -262122, 0, 0, -262121, 0, 0, -262120, 0, 0, -262119, 0, 0, -262118, 0, 0, -262117, 0, 0, -262116, 0, 0, -262115, 0, 0, -262114, 0, 0, -262113, 0, 0, -262112, 0, 0, -262111, 0, 0, -131075, 0, 0, -131074, 0, 0, -131073, 0, 0, -196608, 0, 0, -196607, 0, 0, -196606, 0, 0, -196605, 0, 0, -196604, 0, 0, -196603, 0, 0, -196602, 0, 0, -196601, 0, 0, -196600, 0, 0, -196599, 0, 0, -196598, 0, 0, -196597, 0, 0, -196596, 0, 0, -196595, 0, 0, -196594, 0, 0, -196593, 0, 0, -196592, 0, 0, -196591, 0, 0, -196590, 0, 0, -196589, 0, 0, -196588, 0, 0, -196587, 0, 0, -196586, 0, 0, -196585, 0, 0, -196584, 0, 0, -196583, 0, 0, -196582, 0, 0, -196581, 0, 0, -196580, 0, 0, -196579, 0, 0, -196578, 0, 0, -196577, 0, 0, -196576, 0, 0, -196575, 0, 0, -65539, 0, 0, -65538, 0, 0, -65537, 0, 0, -131072, 0, 0, -131071, 0, 0, -131070, 0, 0, -131069, 0, 0, -131068, 0, 0, -131067, 0, 0, -131066, 0, 0, -131065, 0, 0, -131064, 0, 0, -131063, 0, 0, -131062, 0, 0, -131061, 0, 0, -131060, 0, 0, -131059, 0, 0, -131058, 0, 0, -131057, 0, 0, -131056, 0, 0, -131055, 0, 0, -131054, 0, 0, -131053, 0, 0, -131052, 0, 0, -131051, 0, 0, -131050, 0, 0, -131049, 0, 0, -131048, 0, 0, -131047, 0, 0, -131046, 0, 0, -131045, 0, 0, -131044, 0, 0, -131043, 0, 0, -131042, 0, 0, -131041, 0, 0, -131040, 0, 0, -131039, 0, 0, -3, 0, 0, -2, 0, 0, -1, 0, 0, -65536, 0, 0, -65535, 0, 0, -65534, 0, 0, -65533, 0, 0, -65532, 0, 0, -65531, 0, 0, -65530, 0, 0, -65529, 0, 0, -65528, 0, 0, -65527, 0, 0, -65526, 0, 0, -65525, 0, 0, -65524, 0, 0, -65523, 0, 0, -65522, 0, 0, -65521, 0, 0, -65520, 0, 0, -65519, 0, 0, -65518, 0, 0, -65517, 0, 0, -65516, 0, 0, -65515, 0, 0, -65514, 0, 0, -65513, 0, 0, -65512, 0, 0, -65511, 0, 0, -65510, 0, 0, -65509, 0, 0, -65508, 0, 0, -65507, 0, 0, -65506, 0, 0, -65505, 0, 0, -65504, 0, 0, -65503, 0, 0, 65533, 0, 0, 65534, 0, 0, 65535, 0, 0, 0, 0, 0, 1, 0, 0, 2, 0, 0, 3, 0, 0, 4, 0, 0, 5, 0, 0, 6, 0, 0, 7, 0, 0, 8, 0, 0, 9, 0, 0, 10, 0, 0, 11, 0, 0, 12, 0, 0, 13, 0, 0, 33, 0, 0, 131069, 0, 0, 131070, 0, 0, 131071, 0, 0, 65536, 0, 0, 65537, 0, 0, 65538, 0, 0, 65539, 0, 0, 65540, 0, 0, 65541, 0, 0, 65542, 0, 0, 65543, 0, 0, 65544, 0, 0, 65545, 0, 0, 65546, 0, 0, 65547, 0, 0, 65548, 0, 0, 65549, 0, 0, 65569, 0, 0, 196605, 0, 0, 196606, 0, 0, 196607, 0, 0, 131085, 0, 0, 131105, 0, 0, 262141, 0, 0, 262142, 0, 0, 262143, 0, 0, 196621, 0, 0, 196641, 0, 0, 327677, 0, 0, 327678, 0, 0, 327679, 0, 0, 262157, 0, 0, 262177, 0, 0, 393213, 0, 0, 393214, 0, 0, 393215, 0, 0, 327680, 2, 0, 327693, 0, 0, 327713, 0, 0, 458749, 0, 0, 458750, 0, 0, 458751, 0, 0, 393229, 0, 0, 393249, 0, 0, 524285, 0, 0, 524286, 0, 0, 524287, 0, 0, 458765, 0, 0, 458785, 0, 0, 589821, 0, 0, 589822, 0, 0, 589823, 0, 0, 524288, 0, 0, 524289, 0, 0, 524290, 0, 0, 524291, 0, 0, 524292, 0, 0, 524293, 0, 0, 524294, 0, 0, 524295, 0, 0, 524296, 0, 0, 524297, 0, 0, 524298, 0, 0, 524299, 0, 0, 524300, 0, 0, 524301, 0, 0, 524302, 0, 0, 524303, 0, 0, 524304, 0, 0, 524305, 0, 0, 524306, 0, 0, 524307, 0, 0, 524308, 0, 0, 524309, 0, 0, 524310, 0, 0, 524311, 0, 0, 524312, 0, 0, 524313, 0, 0, 524314, 0, 0, 524315, 0, 0, 524316, 0, 0, 524317, 0, 0, 524318, 0, 0, 524319, 0, 0, 524320, 0, 0, 524321, 0, 0, 524322, 0, 0, 524323, 0, 0, 524324, 0, 0, 524325, 0, 0, 524326, 0, 0, 655357, 0, 0, 655358, 0, 0, 655359, 0, 0, 589824, 0, 0, 589825, 0, 0, 589826, 0, 0, 589827, 0, 0, 589828, 0, 0, 589829, 0, 0, 589830, 0, 0, 589831, 0, 0, 589832, 0, 0, 589833, 0, 0, 589834, 0, 0, 589835, 0, 0, 589836, 0, 0, 589837, 0, 0, 589838, 0, 0, 589839, 0, 0, 589840, 0, 0, 589841, 0, 0, 589842, 0, 0, 589843, 0, 0, 589844, 0, 0, 589845, 0, 0, 589846, 0, 0, 589847, 0, 0, 589848, 0, 0, 589849, 0, 0, 589850, 0, 0, 589851, 0, 0, 589852, 0, 0, 589853, 0, 0, 589854, 0, 0, 589855, 0, 0, 589856, 0, 0, 589857, 0, 0, 589858, 0, 0, 589859, 0, 0, 589860, 0, 0, 589861, 0, 0, 589862, 0, 0, 720893, 0, 0, 720894, 0, 0, 720895, 0, 0, 655360, 0, 0, 655361, 0, 0, 655362, 0, 0, 655363, 0, 0, 655364, 0, 0, 655365, 0, 0, 655366, 0, 0, 655367, 0, 0, 655368, 0, 0, 655369, 0, 0, 655370, 0, 0, 655371, 0, 0, 655372, 0, 0, 655373, 0, 0, 655374, 0, 0, 655375, 0, 0, 655376, 0, 0, 655377, 0, 0, 655378, 0, 0, 655379, 0, 0, 655380, 0, 0, 655381, 0, 0, 655382, 0, 0, 655383, 0, 0, 655384, 0, 0, 655385, 0, 0, 655386, 0, 0, 655387, 0, 0, 655388, 0, 0, 655389, 0, 0, 655390, 0, 0, 655391, 0, 0, 655392, 0, 0, 655393, 0, 0, 786429, 0, 0, 786430, 0, 0, 786431, 0, 0, 720896, 0, 0, 720897, 0, 0, 720898, 0, 0, 720899, 0, 0, 720900, 0, 0, 720901, 0, 0, 720902, 0, 0, 720903, 0, 0, 720904, 0, 0, 720905, 0, 0, 720906, 0, 0, 720907, 0, 0, 720908, 0, 0, 720909, 0, 0, 720910, 0, 0, 720911, 0, 0, 720912, 0, 0, 720913, 0, 0, 720914, 0, 0, 720915, 0, 0, 720916, 0, 0, 720917, 0, 0, 720918, 0, 0, 720919, 0, 0, 720920, 0, 0, 720921, 0, 0, 720922, 0, 0, 720923, 0, 0, 720924, 0, 0, 720925, 0, 0, 720926, 0, 0, 720927, 0, 0, 720928, 0, 0, 720929, 0, 0, 851965, 0, 0, 851966, 0, 0, 851967, 0, 0, 786432, 0, 0, 786433, 0, 0, 786434, 0, 0, 786435, 0, 0, 786436, 0, 0, 786437, 0, 0, 786438, 0, 0, 786439, 0, 0, 786440, 0, 0, 786441, 0, 0, 786442, 0, 0, 786443, 0, 0, 786444, 0, 0, 786445, 0, 0, 786446, 0, 0, 786447, 0, 0, 786448, 0, 0, 786449, 0, 0, 786450, 0, 0, 786451, 0, 0, 786452, 0, 0, 786453, 0, 0, 786454, 0, 0, 786455, 0, 0, 786456, 0, 0, 786457, 0, 0, 786458, 0, 0, 786459, 0, 0, 786460, 0, 0, 786461, 0, 0, 786462, 0, 0, 786463, 0, 0, 786464, 0, 0, 786465, 0, 0 )

[node name="initial" parent="spawns" index="0"]

position = Vector2( 32, 256 )
face_direction = 0

[node name="from_kitchen" type="Position2D" parent="spawns" index="1"]

position = Vector2( 208, 256 )
script = ExtResource( 23 )
__meta__ = {
"_editor_icon": ExtResource( 24 )
}
face_direction = 2

[node name="on_load" parent="scenes" index="0" instance=ExtResource( 8 )]

editor/display_folded = true
on_auto = true
one_time_only = true

[node name="make_body_look_at" parent="scenes/on_load" index="0" instance=ExtResource( 13 )]

body_name = "player"
direction = 1

[node name="reset_overlay" parent="scenes/on_load" index="1" instance=ExtResource( 19 )]

seconds = 0.0

[node name="omg" parent="scenes/on_load" index="2" instance=ExtResource( 10 )]

text = "...!!

[color=gray]Why was the door unlocked?[/color]"
speaker_name = "Tyche"

[node name="door_sfx" parent="scenes/on_load" index="3" instance=ExtResource( 25 )]

sfx = ExtResource( 26 )

[node name="fade_in" parent="scenes/on_load" index="4" instance=ExtResource( 19 )]

color = Color( 0.0627451, 0.0627451, 0.0627451, 0 )
seconds = 2.0
wait = true

[node name="omg2" parent="scenes/on_load" index="5" instance=ExtResource( 10 )]

text = "...Who's there!?

I am calling the police!"
speaker_name = "Tyche"

[node name="hah" parent="scenes/on_load" index="6" instance=ExtResource( 10 )]

text = "Oh no, not the fuzz!
Whatever will I do?"
speaker_name = "???"
centered = true

[node name="omg5" parent="scenes/on_load" index="7" instance=ExtResource( 10 )]

text = ".....

...Hasha? Is that you?"
speaker_name = "Tyche"

[node name="lights_on" parent="scenes" index="2" instance=ExtResource( 8 )]

conditional_statements = "pe.setup_movie > 0"
on_auto = true
one_time_only = true

[node name="toggle_hidden" parent="scenes/lights_on" index="0" instance=ExtResource( 27 )]

body_name = "kitchen-lightsout"
make_hidden = true


[editable path="bodies/prop"]
[editable path="bodies/balcony"]
