[gd_scene load_steps=12 format=2]

[ext_resource path="res://domains/map.tscn" type="PackedScene" id=1]
[ext_resource path="res://assets/tileset/indoor-tiles.tres" type="TileSet" id=2]
[ext_resource path="res://assets/texture/fridge.png" type="Texture" id=3]
[ext_resource path="res://domains/bodies/hasha.tscn" type="PackedScene" id=4]
[ext_resource path="res://domains/bodies/doorway.tscn" type="PackedScene" id=5]
[ext_resource path="res://domains/scene_container.tscn" type="PackedScene" id=6]
[ext_resource path="res://domains/scene.tscn" type="PackedScene" id=7]
[ext_resource path="res://domains/commands/change_map.tscn" type="PackedScene" id=8]
[ext_resource path="res://addons/maulwed_nodes/spawn_point/script.gd" type="Script" id=9]
[ext_resource path="res://addons/maulwed_nodes/spawn_point/icon.png" type="Texture" id=10]
[ext_resource path="res://domains/scenes/force_hasha_talk.tscn" type="PackedScene" id=11]

[node name="map" instance=ExtResource( 1 )]

map_name = "Hasha's House"
time_flow = true

[node name="bounds" parent="." index="0"]

editor/display_folded = false

[node name="top_left" parent="bounds" index="0"]

position = Vector2( -264, 0 )

[node name="bottom_right" parent="bounds" index="1"]

position = Vector2( 3904, 368 )
_sections_unfolded = [ "Transform" ]

[node name="terrain" parent="." index="1"]

tile_set = ExtResource( 2 )
tile_data = PoolIntArray( 1, 4, 0, 2, 4, 0, 3, 4, 0, 4, 4, 0, 5, 4, 0, 6, 4, 0, 7, 4, 0, 8, 4, 0, 9, 4, 0, 10, 4, 0, 11, 4, 0, 12, 4, 0, 13, 4, 0, 14, 4, 0, 15, 4, 0, 16, 4, 0, 17, 4, 0, 18, 4, 0, 19, 4, 0, 20, 4, 0, 21, 4, 0, 22, 4, 0, 23, 4, 0, 24, 4, 0, 25, 4, 0, 26, 4, 0, 27, 4, 0, 28, 4, 0, 29, 4, 0, 30, 4, 0, 31, 4, 0, 32, 4, 0, 33, 4, 0, 34, 4, 0, 35, 4, 0, 36, 4, 0, 37, 4, 0, 38, 4, 0, 39, 4, 0, 40, 4, 0, 41, 4, 0, 42, 4, 0, 43, 4, 0, 44, 4, 0, 45, 4, 0, 46, 4, 0, 47, 4, 0, 48, 4, 0, 49, 4, 0, 50, 4, 0, 51, 4, 0, 52, 4, 0, 69, 4, 0, 70, 4, 0, 71, 4, 0, 72, 4, 0, 73, 4, 0, 74, 4, 0, 75, 4, 0, 76, 4, 0, 77, 4, 0, 78, 4, 0, 79, 4, 0, 80, 4, 0, 81, 4, 0, 82, 4, 0, 83, 4, 0, 84, 4, 0, 85, 4, 0, 86, 4, 0, 87, 4, 0, 88, 4, 0, 89, 4, 0, 90, 4, 0, 91, 4, 0, 92, 4, 0, 93, 4, 0, 94, 4, 0, 95, 4, 0, 96, 4, 0, 97, 4, 0, 98, 4, 0, 99, 4, 0, 100, 4, 0, 101, 4, 0, 102, 4, 0, 103, 4, 0, 104, 4, 0, 105, 4, 0, 106, 4, 0, 107, 4, 0, 108, 4, 0, 109, 4, 0, 110, 4, 0, 111, 4, 0, 112, 4, 0, 113, 4, 0, 114, 4, 0, 115, 4, 0, 116, 4, 0, 117, 4, 0, 118, 4, 0, 119, 4, 0, 120, 4, 0, 65537, 4, 0, 65538, 4, 0, 65539, 4, 0, 65540, 4, 0, 65541, 4, 0, 65542, 4, 0, 65543, 4, 0, 65544, 4, 0, 65545, 4, 0, 65546, 4, 0, 65547, 4, 0, 65548, 4, 0, 65549, 4, 0, 65550, 4, 0, 65551, 4, 0, 65552, 4, 0, 65553, 4, 0, 65554, 4, 0, 65555, 4, 0, 65556, 4, 0, 65557, 4, 0, 65558, 4, 0, 65559, 4, 0, 65560, 4, 0, 65561, 4, 0, 65562, 4, 0, 65563, 4, 0, 65564, 4, 0, 65565, 4, 0, 65566, 4, 0, 65567, 4, 0, 65568, 4, 0, 65569, 4, 0, 65570, 4, 0, 65571, 4, 0, 65572, 4, 0, 65573, 4, 0, 65574, 4, 0, 65575, 4, 0, 65576, 4, 0, 65577, 4, 0, 65578, 4, 0, 65579, 4, 0, 65580, 4, 0, 65581, 4, 0, 65582, 4, 0, 65583, 4, 0, 65584, 4, 0, 65585, 4, 0, 65586, 4, 0, 65587, 4, 0, 65588, 4, 0, 65605, 4, 0, 65606, 4, 0, 65607, 4, 0, 65608, 4, 0, 65609, 4, 0, 65610, 4, 0, 65611, 4, 0, 65612, 4, 0, 65613, 4, 0, 65614, 4, 0, 65615, 4, 0, 65616, 4, 0, 65617, 4, 0, 65618, 4, 0, 65619, 4, 0, 65620, 4, 0, 65621, 4, 0, 65622, 4, 0, 65623, 4, 0, 65624, 4, 0, 65625, 4, 0, 65626, 4, 0, 65627, 4, 0, 65628, 4, 0, 65629, 4, 0, 65630, 4, 0, 65631, 4, 0, 65632, 4, 0, 65633, 4, 0, 65634, 4, 0, 65635, 4, 0, 65636, 4, 0, 65637, 4, 0, 65638, 4, 0, 65639, 4, 0, 65640, 4, 0, 65641, 4, 0, 65642, 4, 0, 65643, 4, 0, 65644, 4, 0, 65645, 4, 0, 65646, 4, 0, 65647, 4, 0, 65648, 4, 0, 65649, 4, 0, 65650, 4, 0, 65651, 4, 0, 65652, 4, 0, 65653, 4, 0, 65654, 4, 0, 65655, 4, 0, 65656, 4, 0, 131073, 4, 0, 131074, 4, 0, 131075, 4, 0, 131076, 4, 0, 131077, 4, 0, 131078, 4, 0, 131079, 4, 0, 131080, 4, 0, 131081, 4, 0, 131082, 4, 0, 131083, 4, 0, 131084, 4, 0, 131085, 4, 0, 131086, 4, 0, 131087, 4, 0, 131088, 4, 0, 131089, 4, 0, 131090, 4, 0, 131091, 4, 0, 131092, 4, 0, 131093, 4, 0, 131094, 4, 0, 131095, 4, 0, 131096, 4, 0, 131097, 4, 0, 131098, 4, 0, 131099, 4, 0, 131100, 4, 0, 131101, 4, 0, 131102, 4, 0, 131103, 4, 0, 131104, 4, 0, 131105, 4, 0, 131106, 4, 0, 131107, 4, 0, 131108, 4, 0, 131109, 4, 0, 131110, 4, 0, 131111, 4, 0, 131112, 4, 0, 131113, 4, 0, 131114, 4, 0, 131115, 4, 0, 131116, 4, 0, 131117, 4, 0, 131118, 4, 0, 131119, 4, 0, 131120, 4, 0, 131121, 4, 0, 131122, 4, 0, 131123, 4, 0, 131124, 4, 0, 131141, 4, 0, 131142, 4, 0, 131143, 4, 0, 131144, 4, 0, 131145, 4, 0, 131146, 4, 0, 131147, 4, 0, 131148, 4, 0, 131149, 4, 0, 131150, 4, 0, 131151, 4, 0, 131152, 4, 0, 131153, 4, 0, 131154, 4, 0, 131155, 4, 0, 131156, 4, 0, 131157, 4, 0, 131158, 4, 0, 131159, 4, 0, 131160, 4, 0, 131161, 4, 0, 131162, 4, 0, 131163, 4, 0, 131164, 4, 0, 131165, 4, 0, 131166, 4, 0, 131167, 4, 0, 131168, 4, 0, 131169, 4, 0, 131170, 4, 0, 131171, 4, 0, 131172, 4, 0, 131173, 4, 0, 131174, 4, 0, 131175, 4, 0, 131176, 4, 0, 131177, 4, 0, 131178, 4, 0, 131179, 4, 0, 131180, 4, 0, 131181, 4, 0, 131182, 4, 0, 131183, 4, 0, 131184, 4, 0, 131185, 4, 0, 131186, 4, 0, 131187, 4, 0, 131188, 4, 0, 131189, 4, 0, 131190, 4, 0, 131191, 4, 0, 131192, 4, 0, 196609, 4, 0, 196610, 4, 0, 196611, 4, 0, 196612, 4, 0, 196613, 4, 0, 196614, 4, 0, 196615, 4, 0, 196616, 4, 0, 196617, 4, 0, 196618, 4, 0, 196619, 4, 0, 196620, 4, 0, 196621, 4, 0, 196622, 4, 0, 196623, 4, 0, 196624, 4, 0, 196625, 4, 0, 196626, 4, 0, 196627, 4, 0, 196628, 4, 0, 196629, 4, 0, 196630, 4, 0, 196631, 4, 0, 196632, 4, 0, 196633, 4, 0, 196634, 4, 0, 196635, 4, 0, 196636, 4, 0, 196637, 4, 0, 196638, 4, 0, 196639, 4, 0, 196640, 4, 0, 196641, 4, 0, 196642, 4, 0, 196643, 4, 0, 196644, 4, 0, 196645, 4, 0, 196646, 4, 0, 196647, 4, 0, 196648, 4, 0, 196649, 4, 0, 196650, 4, 0, 196651, 4, 0, 196652, 4, 0, 196653, 4, 0, 196654, 4, 0, 196655, 4, 0, 196656, 4, 0, 196657, 4, 0, 196658, 4, 0, 196659, 4, 0, 196660, 4, 0, 196677, 4, 0, 196678, 4, 0, 196679, 4, 0, 196680, 4, 0, 196681, 4, 0, 196682, 4, 0, 196683, 4, 0, 196684, 4, 0, 196685, 4, 0, 196686, 4, 0, 196687, 4, 0, 196688, 4, 0, 196689, 4, 0, 196690, 4, 0, 196691, 4, 0, 196692, 4, 0, 196693, 4, 0, 196694, 4, 0, 196695, 4, 0, 196696, 4, 0, 196697, 4, 0, 196698, 4, 0, 196699, 4, 0, 196700, 4, 0, 196701, 4, 0, 196702, 4, 0, 196703, 4, 0, 196704, 4, 0, 196705, 4, 0, 196706, 4, 0, 196707, 4, 0, 196708, 4, 0, 196709, 4, 0, 196710, 4, 0, 196711, 4, 0, 196712, 4, 0, 196713, 4, 0, 196714, 4, 0, 196715, 4, 0, 196716, 4, 0, 196717, 4, 0, 196718, 4, 0, 196719, 4, 0, 196720, 4, 0, 196721, 4, 0, 196722, 4, 0, 196723, 4, 0, 196724, 4, 0, 196725, 4, 0, 196726, 4, 0, 196727, 4, 0, 196728, 4, 0, 262145, 4, 0, 262146, 4, 0, 262147, 4, 0, 262148, 4, 0, 262149, 4, 0, 262150, 4, 0, 262151, 4, 0, 262152, 4, 0, 262153, 4, 0, 262154, 4, 0, 262155, 4, 0, 262156, 4, 0, 262157, 4, 0, 262158, 4, 0, 262159, 4, 0, 262160, 4, 0, 262161, 4, 0, 262162, 4, 0, 262163, 4, 0, 262164, 4, 0, 262165, 4, 0, 262166, 4, 0, 262167, 4, 0, 262168, 4, 0, 262169, 4, 0, 262170, 4, 0, 262171, 4, 0, 262172, 4, 0, 262173, 4, 0, 262174, 4, 0, 262175, 4, 0, 262176, 4, 0, 262177, 4, 0, 262178, 4, 0, 262179, 4, 0, 262180, 4, 0, 262181, 4, 0, 262182, 4, 0, 262183, 4, 0, 262184, 4, 0, 262185, 4, 0, 262186, 4, 0, 262187, 4, 0, 262188, 4, 0, 262189, 4, 0, 262190, 4, 0, 262191, 4, 0, 262192, 4, 0, 262193, 4, 0, 262194, 4, 0, 262195, 4, 0, 262196, 4, 0, 262213, 4, 0, 262214, 4, 0, 262215, 4, 0, 262216, 4, 0, 262217, 4, 0, 262218, 4, 0, 262219, 4, 0, 262220, 4, 0, 262221, 4, 0, 262222, 4, 0, 262223, 4, 0, 262224, 4, 0, 262225, 4, 0, 262226, 4, 0, 262227, 4, 0, 262228, 4, 0, 262229, 4, 0, 262230, 4, 0, 262231, 4, 0, 262232, 4, 0, 262233, 4, 0, 262234, 4, 0, 262235, 4, 0, 262236, 4, 0, 262237, 4, 0, 262238, 4, 0, 262239, 4, 0, 262240, 4, 0, 262241, 4, 0, 262242, 4, 0, 262243, 4, 0, 262244, 4, 0, 262245, 4, 0, 262246, 4, 0, 262247, 4, 0, 262248, 4, 0, 262249, 4, 0, 262250, 4, 0, 262251, 4, 0, 262252, 4, 0, 262253, 4, 0, 262254, 4, 0, 262255, 4, 0, 262256, 4, 0, 262257, 4, 0, 262258, 4, 0, 262259, 4, 0, 262260, 4, 0, 262261, 4, 0, 262262, 4, 0, 262263, 4, 0, 262264, 4, 0, 327681, 4, 0, 327682, 4, 0, 327683, 4, 0, 327684, 4, 0, 327685, 4, 0, 327686, 4, 0, 327687, 4, 0, 327688, 4, 0, 327689, 4, 0, 327690, 4, 0, 327691, 4, 0, 327692, 4, 0, 327693, 4, 0, 327694, 4, 0, 327695, 4, 0, 327696, 4, 0, 327697, 4, 0, 327698, 4, 0, 327699, 4, 0, 327700, 4, 0, 327701, 4, 0, 327702, 4, 0, 327703, 4, 0, 327704, 4, 0, 327705, 4, 0, 327706, 4, 0, 327707, 4, 0, 327708, 4, 0, 327709, 4, 0, 327710, 4, 0, 327711, 4, 0, 327712, 4, 0, 327713, 4, 0, 327714, 4, 0, 327715, 4, 0, 327716, 4, 0, 327717, 4, 0, 327718, 4, 0, 327719, 4, 0, 327720, 4, 0, 327721, 4, 0, 327722, 4, 0, 327723, 4, 0, 327724, 4, 0, 327725, 4, 0, 327726, 4, 0, 327727, 4, 0, 327728, 4, 0, 327729, 4, 0, 327730, 4, 0, 327731, 4, 0, 327732, 4, 0, 327749, 4, 0, 327750, 4, 0, 327751, 4, 0, 327752, 4, 0, 327753, 4, 0, 327754, 4, 0, 327755, 4, 0, 327756, 4, 0, 327757, 4, 0, 327758, 4, 0, 327759, 4, 0, 327760, 4, 0, 327761, 4, 0, 327762, 4, 0, 327763, 4, 0, 327764, 4, 0, 327765, 4, 0, 327766, 4, 0, 327767, 4, 0, 327768, 4, 0, 327769, 4, 0, 327770, 4, 0, 327771, 4, 0, 327772, 4, 0, 327773, 4, 0, 327774, 4, 0, 327775, 4, 0, 327776, 4, 0, 327777, 4, 0, 327778, 4, 0, 327779, 4, 0, 327780, 4, 0, 327781, 4, 0, 327782, 4, 0, 327783, 4, 0, 327784, 4, 0, 327785, 4, 0, 327786, 4, 0, 327787, 4, 0, 327788, 4, 0, 327789, 4, 0, 327790, 4, 0, 327791, 4, 0, 327792, 4, 0, 327793, 4, 0, 327794, 4, 0, 327795, 4, 0, 327796, 4, 0, 327797, 4, 0, 327798, 4, 0, 327799, 4, 0, 327800, 4, 0, 393217, 4, 0, 393218, 4, 0, 393219, 4, 0, 393220, 4, 0, 393221, 4, 0, 393222, 4, 0, 393223, 4, 0, 393224, 4, 0, 393225, 4, 0, 393226, 4, 0, 393227, 4, 0, 393228, 4, 0, 393229, 4, 0, 393230, 4, 0, 393231, 4, 0, 393232, 4, 0, 393233, 4, 0, 393234, 4, 0, 393235, 4, 0, 393236, 4, 0, 393237, 4, 0, 393238, 4, 0, 393239, 4, 0, 393240, 4, 0, 393241, 4, 0, 393242, 4, 0, 393243, 4, 0, 393244, 4, 0, 393245, 4, 0, 393246, 4, 0, 393247, 4, 0, 393248, 4, 0, 393249, 4, 0, 393250, 4, 0, 393251, 4, 0, 393252, 4, 0, 393253, 4, 0, 393254, 4, 0, 393255, 4, 0, 393256, 4, 0, 393257, 4, 0, 393258, 4, 0, 393259, 4, 0, 393260, 4, 0, 393261, 4, 0, 393262, 4, 0, 393263, 4, 0, 393264, 4, 0, 393265, 4, 0, 393266, 4, 0, 393267, 4, 0, 393268, 4, 0, 393285, 4, 0, 393286, 4, 0, 393287, 4, 0, 393288, 4, 0, 393289, 4, 0, 393290, 4, 0, 393291, 4, 0, 393292, 4, 0, 393293, 4, 0, 393294, 4, 0, 393295, 4, 0, 393296, 4, 0, 393297, 4, 0, 393298, 4, 0, 393299, 4, 0, 393300, 4, 0, 393301, 4, 0, 393302, 4, 0, 393303, 4, 0, 393304, 4, 0, 393305, 4, 0, 393306, 4, 0, 393307, 4, 0, 393308, 4, 0, 393309, 4, 0, 393310, 4, 0, 393311, 4, 0, 393312, 4, 0, 393313, 4, 0, 393314, 4, 0, 393315, 4, 0, 393316, 4, 0, 393317, 4, 0, 393318, 4, 0, 393319, 4, 0, 393320, 4, 0, 393321, 4, 0, 393322, 4, 0, 393323, 4, 0, 393324, 4, 0, 393325, 4, 0, 393326, 4, 0, 393327, 4, 0, 393328, 4, 0, 393329, 4, 0, 393330, 4, 0, 393331, 4, 0, 393332, 4, 0, 393333, 4, 0, 393334, 4, 0, 393335, 4, 0, 393336, 4, 0, 458753, 4, 0, 458754, 4, 0, 458755, 4, 0, 458756, 4, 0, 458757, 4, 0, 458758, 4, 0, 458759, 4, 0, 458760, 4, 0, 458761, 4, 0, 458762, 4, 0, 458763, 4, 0, 458764, 4, 0, 458765, 4, 0, 458766, 4, 0, 458767, 4, 0, 458768, 4, 0, 458769, 4, 0, 458770, 4, 0, 458771, 4, 0, 458772, 4, 0, 458773, 4, 0, 458774, 4, 0, 458775, 4, 0, 458776, 4, 0, 458777, 4, 0, 458778, 4, 0, 458779, 4, 0, 458780, 4, 0, 458781, 4, 0, 458782, 4, 0, 458783, 4, 0, 458784, 4, 0, 458785, 4, 0, 458786, 4, 0, 458787, 4, 0, 458788, 4, 0, 458789, 4, 0, 458790, 4, 0, 458791, 4, 0, 458792, 4, 0, 458793, 4, 0, 458794, 4, 0, 458795, 4, 0, 458796, 4, 0, 458797, 4, 0, 458798, 4, 0, 458799, 4, 0, 458800, 4, 0, 458801, 4, 0, 458802, 4, 0, 458803, 4, 0, 458804, 4, 0, 458821, 4, 0, 458822, 4, 0, 458823, 4, 0, 458824, 4, 0, 458825, 4, 0, 458826, 4, 0, 458827, 4, 0, 458828, 4, 0, 458829, 4, 0, 458830, 4, 0, 458831, 4, 0, 458832, 4, 0, 458833, 4, 0, 458834, 4, 0, 458835, 4, 0, 458836, 4, 0, 458837, 4, 0, 458838, 4, 0, 458839, 4, 0, 458840, 4, 0, 458841, 4, 0, 458842, 4, 0, 458843, 4, 0, 458844, 4, 0, 458845, 4, 0, 458846, 4, 0, 458847, 4, 0, 458848, 4, 0, 458849, 4, 0, 458850, 4, 0, 458851, 4, 0, 458852, 4, 0, 458853, 4, 0, 458854, 4, 0, 458855, 4, 0, 458856, 4, 0, 458857, 4, 0, 458858, 4, 0, 458859, 4, 0, 458860, 4, 0, 458861, 4, 0, 458862, 4, 0, 458863, 4, 0, 458864, 4, 0, 458865, 4, 0, 458866, 4, 0, 458867, 4, 0, 458868, 4, 0, 458869, 4, 0, 458870, 4, 0, 458871, 4, 0, 458872, 4, 0, 524289, 4, 0, 524290, 4, 0, 524291, 4, 0, 524292, 4, 0, 524293, 4, 0, 524294, 4, 0, 524295, 4, 0, 524296, 4, 0, 524297, 4, 0, 524298, 4, 0, 524299, 4, 0, 524300, 4, 0, 524301, 4, 0, 524302, 4, 0, 524303, 4, 0, 524304, 4, 0, 524305, 4, 0, 524306, 4, 0, 524307, 4, 0, 524308, 4, 0, 524309, 4, 0, 524310, 4, 0, 524311, 4, 0, 524312, 4, 0, 524313, 4, 0, 524314, 4, 0, 524315, 4, 0, 524316, 4, 0, 524317, 4, 0, 524318, 4, 0, 524319, 4, 0, 524320, 4, 0, 524321, 4, 0, 524322, 4, 0, 524323, 4, 0, 524324, 4, 0, 524325, 4, 0, 524326, 4, 0, 524327, 4, 0, 524328, 4, 0, 524329, 4, 0, 524330, 4, 0, 524331, 4, 0, 524332, 4, 0, 524333, 4, 0, 524334, 4, 0, 524335, 4, 0, 524336, 4, 0, 524337, 4, 0, 524338, 4, 0, 524339, 4, 0, 524340, 4, 0, 524357, 4, 0, 524358, 4, 0, 524359, 4, 0, 524360, 4, 0, 524361, 4, 0, 524362, 4, 0, 524363, 4, 0, 524364, 4, 0, 524365, 4, 0, 524366, 4, 0, 524367, 4, 0, 524368, 4, 0, 524369, 4, 0, 524370, 4, 0, 524371, 4, 0, 524372, 4, 0, 524373, 4, 0, 524374, 4, 0, 524375, 4, 0, 524376, 4, 0, 524377, 4, 0, 524378, 4, 0, 524379, 4, 0, 524380, 4, 0, 524381, 4, 0, 524382, 4, 0, 524383, 4, 0, 524384, 4, 0, 524385, 4, 0, 524386, 4, 0, 524387, 4, 0, 524388, 4, 0, 524389, 4, 0, 524390, 4, 0, 524391, 4, 0, 524392, 4, 0, 524393, 4, 0, 524394, 4, 0, 524395, 4, 0, 524396, 4, 0, 524397, 4, 0, 524398, 4, 0, 524399, 4, 0, 524400, 4, 0, 524401, 4, 0, 524402, 4, 0, 524403, 4, 0, 524404, 4, 0, 524405, 4, 0, 524406, 4, 0, 524407, 4, 0, 524408, 4, 0, 589825, 5, 0, 589826, 5, 0, 589827, 5, 0, 589828, 5, 0, 589829, 5, 0, 589830, 5, 0, 589831, 5, 0, 589832, 5, 0, 589833, 5, 0, 589834, 5, 0, 589835, 5, 0, 589836, 5, 0, 589837, 5, 0, 589838, 5, 0, 589839, 5, 0, 589840, 5, 0, 589841, 5, 0, 589842, 5, 0, 589843, 5, 0, 589844, 5, 0, 589845, 5, 0, 589846, 5, 0, 589847, 5, 0, 589848, 5, 0, 589849, 5, 0, 589850, 5, 0, 589851, 5, 0, 589852, 5, 0, 589853, 5, 0, 589854, 5, 0, 589855, 5, 0, 589856, 5, 0, 589857, 5, 0, 589858, 5, 0, 589859, 5, 0, 589860, 5, 0, 589861, 5, 0, 589862, 5, 0, 589863, 5, 0, 589864, 5, 0, 589865, 5, 0, 589866, 5, 0, 589867, 5, 0, 589868, 5, 0, 589869, 5, 0, 589870, 5, 0, 589871, 5, 0, 589872, 5, 0, 589873, 5, 0, 589874, 5, 0, 589875, 5, 0, 589876, 5, 0, 589893, 5, 0, 589894, 5, 0, 589895, 5, 0, 589896, 5, 0, 589897, 5, 0, 589898, 5, 0, 589899, 5, 0, 589900, 5, 0, 589901, 5, 0, 589902, 5, 0, 589903, 5, 0, 589904, 5, 0, 589905, 5, 0, 589906, 5, 0, 589907, 5, 0, 589908, 5, 0, 589909, 5, 0, 589910, 5, 0, 589911, 5, 0, 589912, 5, 0, 589913, 5, 0, 589914, 5, 0, 589915, 5, 0, 589916, 5, 0, 589917, 5, 0, 589918, 5, 0, 589919, 5, 0, 589920, 5, 0, 589921, 5, 0, 589922, 5, 0, 589923, 5, 0, 589924, 5, 0, 589925, 5, 0, 589926, 5, 0, 589927, 5, 0, 589928, 5, 0, 589929, 5, 0, 589930, 5, 0, 589931, 5, 0, 589932, 5, 0, 589933, 5, 0, 589934, 5, 0, 589935, 5, 0, 589936, 5, 0, 589937, 5, 0, 589938, 5, 0, 589939, 5, 0, 589940, 5, 0, 589941, 5, 0, 589942, 5, 0, 589943, 5, 0, 589944, 5, 0 )

[node name="scenario" type="Node2D" parent="terrain" index="0"]

[node name="kitchen" type="Node2D" parent="terrain/scenario" index="0"]

[node name="outside" type="Polygon2D" parent="terrain/scenario/kitchen" index="0"]

editor/display_folded = true
polygon = PoolVector2Array( 0, -32, -360, -32, -360, 384, 0, 384 )
uv = PoolVector2Array(  )
color = Color( 0.726013, 0.953125, 0.921187, 1 )
vertex_colors = PoolColorArray(  )
offset = Vector2( 0, 0 )
antialiased = false
texture = null
texture_offset = Vector2( 0, 0 )
texture_scale = Vector2( 1, 1 )
texture_rotation_degrees = 0.0
invert_enable = false
invert_border = 100.0

[node name="polygon_2d3" type="Polygon2D" parent="terrain/scenario/kitchen/outside" index="0"]

polygon = PoolVector2Array( -296, 384, -296, 264, -168, 264, -168, 384 )
uv = PoolVector2Array(  )
color = Color( 0.674133, 0.917969, 0.887489, 1 )
vertex_colors = PoolColorArray(  )
offset = Vector2( 0, 0 )
antialiased = false
texture = null
texture_offset = Vector2( 0, 0 )
texture_scale = Vector2( 1, 1 )
texture_rotation_degrees = 0.0
invert_enable = false
invert_border = 100.0

[node name="polygon_2d" type="Polygon2D" parent="terrain/scenario/kitchen/outside" index="1"]

polygon = PoolVector2Array( -80, 384, -80, 272, 0, 272, 0, 384 )
uv = PoolVector2Array(  )
color = Color( 0.531738, 0.773438, 0.7401, 1 )
vertex_colors = PoolColorArray(  )
offset = Vector2( 0, 0 )
antialiased = false
texture = null
texture_offset = Vector2( 0, 0 )
texture_scale = Vector2( 1, 1 )
texture_rotation_degrees = 0.0
invert_enable = false
invert_border = 100.0

[node name="polygon_2d2" type="Polygon2D" parent="terrain/scenario/kitchen/outside" index="2"]

polygon = PoolVector2Array( -80, 312, -208, 312, -208, 384, -80, 384 )
uv = PoolVector2Array(  )
color = Color( 0.616516, 0.867188, 0.834693, 1 )
vertex_colors = PoolColorArray(  )
offset = Vector2( 0, 0 )
antialiased = false
texture = null
texture_offset = Vector2( 0, 0 )
texture_scale = Vector2( 1, 1 )
texture_rotation_degrees = 0.0
invert_enable = false
invert_border = 100.0

[node name="pic" type="Polygon2D" parent="terrain/scenario/kitchen" index="1"]

editor/display_folded = true
position = Vector2( 128, 0 )
polygon = PoolVector2Array( 960, 224, 960, 128, 1016, 128, 1016, 224 )
uv = PoolVector2Array(  )
color = Color( 0.824219, 0.629697, 0.540894, 1 )
vertex_colors = PoolColorArray(  )
offset = Vector2( 0, 0 )
antialiased = false
texture = null
texture_offset = Vector2( 0, 0 )
texture_scale = Vector2( 1, 1 )
texture_rotation_degrees = 0.0
invert_enable = false
invert_border = 100.0

[node name="pic2" type="Polygon2D" parent="terrain/scenario/kitchen/pic" index="0"]

position = Vector2( 96, -48 )
polygon = PoolVector2Array( 960, 232, 960, 176, 1048, 176, 1048, 232 )
uv = PoolVector2Array(  )
color = Color( 0.824219, 0.629697, 0.540894, 1 )
vertex_colors = PoolColorArray(  )
offset = Vector2( 0, 0 )
antialiased = false
texture = null
texture_offset = Vector2( 0, 0 )
texture_scale = Vector2( 1, 1 )
texture_rotation_degrees = 0.0
invert_enable = false
invert_border = 100.0

[node name="oven" type="Polygon2D" parent="terrain/scenario/kitchen" index="2"]

editor/display_folded = true
position = Vector2( -8, 0 )
polygon = PoolVector2Array( 368, 320, 368, 224, 464, 224, 464, 320 )
uv = PoolVector2Array(  )
color = Color( 0.359375, 0.266704, 0.223206, 1 )
vertex_colors = PoolColorArray(  )
offset = Vector2( 0, 0 )
antialiased = false
texture = null
texture_offset = Vector2( 0, 0 )
texture_scale = Vector2( 1, 1 )
texture_rotation_degrees = 0.0
invert_enable = false
invert_border = 100.0

[node name="counter" type="Polygon2D" parent="terrain/scenario/kitchen/oven" index="0"]

polygon = PoolVector2Array( 352, 224, 40, 224, 40, 320, 344, 320, 344, 232, 352, 232 )
uv = PoolVector2Array(  )
color = Color( 0.539062, 0.365663, 0.284271, 1 )
vertex_colors = PoolColorArray(  )
offset = Vector2( 0, 0 )
antialiased = false
texture = null
texture_offset = Vector2( 0, 0 )
texture_scale = Vector2( 1, 1 )
texture_rotation_degrees = 0.0
invert_enable = false
invert_border = 100.0

[node name="fridge" type="Sprite" parent="terrain/scenario/kitchen" index="3"]

position = Vector2( 488, 120 )
scale = Vector2( 1.25, 1.25 )
texture = ExtResource( 3 )
centered = false
_sections_unfolded = [ "Offset", "Transform" ]

[node name="table" type="Polygon2D" parent="terrain/scenario/kitchen" index="4"]

editor/display_folded = true
position = Vector2( 112, 0 )
polygon = PoolVector2Array( 136, 248, 136, 320, 128, 320, 128, 248, 112, 248, 112, 240, 288, 240, 288, 248, 272, 248, 272, 320, 264, 320, 264, 248 )
uv = PoolVector2Array(  )
color = Color( 0.1875, 0.109074, 0.0571289, 1 )
vertex_colors = PoolColorArray(  )
offset = Vector2( 0, 0 )
antialiased = false
texture = null
texture_offset = Vector2( 0, 0 )
texture_scale = Vector2( 1, 1 )
texture_rotation_degrees = 0.0
invert_enable = false
invert_border = 100.0

[node name="left-chair" type="Polygon2D" parent="terrain/scenario/kitchen/table" index="0"]

position = Vector2( 8, 0 )
polygon = PoolVector2Array( 104, 320, 104, 272, 64, 272, 64, 216, 56, 216, 56, 320, 64, 320, 64, 280, 96, 280, 96, 320 )
uv = PoolVector2Array(  )
color = Color( 0.188235, 0.109804, 0.054902, 1 )
vertex_colors = PoolColorArray(  )
offset = Vector2( 0, 0 )
antialiased = false
texture = null
texture_offset = Vector2( 0, 0 )
texture_scale = Vector2( 1, 1 )
texture_rotation_degrees = 0.0
invert_enable = false
invert_border = 100.0

[node name="right-chair" type="Polygon2D" parent="terrain/scenario/kitchen/table" index="1"]

position = Vector2( 392, 0 )
scale = Vector2( -1, 1 )
polygon = PoolVector2Array( 104, 320, 104, 272, 64, 272, 64, 216, 56, 216, 56, 320, 64, 320, 64, 280, 96, 280, 96, 320 )
uv = PoolVector2Array(  )
color = Color( 0.188235, 0.109804, 0.054902, 1 )
vertex_colors = PoolColorArray(  )
offset = Vector2( 0, 0 )
antialiased = false
texture = null
texture_offset = Vector2( 0, 0 )
texture_scale = Vector2( 1, 1 )
texture_rotation_degrees = 0.0
invert_enable = false
invert_border = 100.0
_sections_unfolded = [ "Transform" ]

[node name="to_hall" type="Polygon2D" parent="terrain/scenario/kitchen" index="5"]

position = Vector2( 128, 0 )
polygon = PoolVector2Array( 1248, 320, 1248, 112, 1264, 96, 1392, 96, 1408, 112, 1408, 320 )
uv = PoolVector2Array(  )
color = Color( 0.188235, 0.105882, 0.0666667, 1 )
vertex_colors = PoolColorArray(  )
offset = Vector2( 0, 0 )
antialiased = false
texture = null
texture_offset = Vector2( 0, 0 )
texture_scale = Vector2( 1, 1 )
texture_rotation_degrees = 0.0
invert_enable = false
invert_border = 100.0

[node name="hallway" type="Node2D" parent="terrain/scenario" index="1"]

[node name="helens_room_door" type="Polygon2D" parent="terrain/scenario/hallway" index="0"]

position = Vector2( 32, 0 )
polygon = PoolVector2Array( 2880, 320, 2880, 96, 3008, 96, 3008, 320 )
uv = PoolVector2Array(  )
color = Color( 0.188235, 0.105882, 0.0666667, 1 )
vertex_colors = PoolColorArray(  )
offset = Vector2( 0, 0 )
antialiased = false
texture = null
texture_offset = Vector2( 0, 0 )
texture_scale = Vector2( 1, 1 )
texture_rotation_degrees = 0.0
invert_enable = false
invert_border = 100.0

[node name="toiletdoor" type="Polygon2D" parent="terrain/scenario/hallway" index="1"]

position = Vector2( -160, 0 )
polygon = PoolVector2Array( 2880, 320, 2880, 96, 3008, 96, 3008, 320 )
uv = PoolVector2Array(  )
color = Color( 0.188235, 0.105882, 0.0666667, 1 )
vertex_colors = PoolColorArray(  )
offset = Vector2( 0, 0 )
antialiased = false
texture = null
texture_offset = Vector2( 0, 0 )
texture_scale = Vector2( 1, 1 )
texture_rotation_degrees = 0.0
invert_enable = false
invert_border = 100.0

[node name="pic2" type="Polygon2D" parent="terrain/scenario/hallway" index="2"]

position = Vector2( 2112, 0 )
polygon = PoolVector2Array( 960, 224, 960, 128, 1016, 128, 1016, 224 )
uv = PoolVector2Array(  )
color = Color( 0.824219, 0.629697, 0.540894, 1 )
vertex_colors = PoolColorArray(  )
offset = Vector2( 0, 0 )
antialiased = false
texture = null
texture_offset = Vector2( 0, 0 )
texture_scale = Vector2( 1, 1 )
texture_rotation_degrees = 0.0
invert_enable = false
invert_border = 100.0

[node name="pic2" type="Polygon2D" parent="terrain/scenario/hallway/pic2" index="0"]

position = Vector2( 96, -48 )
polygon = PoolVector2Array( 960, 232, 960, 176, 1048, 176, 1048, 232 )
uv = PoolVector2Array(  )
color = Color( 0.824219, 0.629697, 0.540894, 1 )
vertex_colors = PoolColorArray(  )
offset = Vector2( 0, 0 )
antialiased = false
texture = null
texture_offset = Vector2( 0, 0 )
texture_scale = Vector2( 1, 1 )
texture_rotation_degrees = 0.0
invert_enable = false
invert_border = 100.0

[node name="to_kitchen" type="Polygon2D" parent="terrain/scenario/hallway" index="3"]

position = Vector2( 1120, 0 )
polygon = PoolVector2Array( 1248, 320, 1248, 112, 1264, 96, 1392, 96, 1408, 112, 1408, 320 )
uv = PoolVector2Array(  )
color = Color( 0.188235, 0.105882, 0.0666667, 1 )
vertex_colors = PoolColorArray(  )
offset = Vector2( 0, 0 )
antialiased = false
texture = null
texture_offset = Vector2( 0, 0 )
texture_scale = Vector2( 1, 1 )
texture_rotation_degrees = 0.0
invert_enable = false
invert_border = 100.0
_sections_unfolded = [ "Transform" ]

[node name="boundaries" type="StaticBody2D" parent="terrain" index="1"]

editor/display_folded = true
input_pickable = false
collision_layer = 1
collision_mask = 1
constant_linear_velocity = Vector2( 0, 0 )
constant_angular_velocity = 0.0
friction = 1.0
bounce = 0.0

[node name="shape1" type="CollisionPolygon2D" parent="terrain/boundaries" index="0"]

build_mode = 0
polygon = PoolVector2Array( 32, 0, 32, 320, 1696, 320, 1696, 320, 1696, 0, 64, 0, 32, -32, 1728, -32, 1728, 352, 0, 352, 0, -32 )
_sections_unfolded = [ "Transform" ]

[node name="shape2" type="CollisionPolygon2D" parent="terrain/boundaries" index="1"]

position = Vector2( 2176, 0 )
build_mode = 0
polygon = PoolVector2Array( 32, 0, 32, 320, 1696, 320, 1696, 320, 1696, 0, 64, 0, 32, -32, 1728, -32, 1728, 352, 0, 352, 0, -32 )
_sections_unfolded = [ "Transform" ]

[node name="hasha" parent="bodies" index="0" instance=ExtResource( 4 )]

position = Vector2( 800, 320 )
hidden = true

[node name="hallway_doorway" parent="bodies" index="1" instance=ExtResource( 5 )]

position = Vector2( 1456, 320 )
z_index = 11
_sections_unfolded = [ "Collision", "Z Index" ]
interactable = 3

[node name="scenes" parent="bodies/hallway_doorway" index="4" instance=ExtResource( 6 )]

[node name="to_hallway" parent="bodies/hallway_doorway/scenes" index="0" instance=ExtResource( 7 )]

on_interact = true

[node name="change_map" parent="bodies/hallway_doorway/scenes/to_hallway" index="0" instance=ExtResource( 8 )]

map_id = "west_f2_access"
spawn_point = "from_kitchen"

[node name="kitchen_doorway" parent="bodies" index="2" instance=ExtResource( 5 )]

position = Vector2( 2448, 320 )
z_index = 11
_sections_unfolded = [ "Collision", "Z Index" ]
interactable = 3

[node name="scenes" parent="bodies/kitchen_doorway" index="4" instance=ExtResource( 6 )]

[node name="to_kichen" parent="bodies/kitchen_doorway/scenes" index="0" instance=ExtResource( 7 )]

on_interact = true

[node name="change_map" parent="bodies/kitchen_doorway/scenes/to_kichen" index="0" instance=ExtResource( 8 )]

position = Vector2( -992, 0 )
map_id = "west_f2_access"
spawn_point = "from_hallway"

[node name="overlay" parent="." index="3"]

tile_set = ExtResource( 2 )
tile_data = PoolIntArray( -65536, 0, 0, -65535, 0, 0, -65534, 0, 0, -65533, 0, 0, -65532, 0, 0, -65531, 0, 0, -65530, 0, 0, -65529, 0, 0, -65528, 0, 0, -65527, 0, 0, -65526, 0, 0, -65525, 0, 0, -65524, 0, 0, -65523, 0, 0, -65522, 0, 0, -65521, 0, 0, -65520, 0, 0, -65519, 0, 0, -65518, 0, 0, -65517, 0, 0, -65516, 0, 0, -65515, 0, 0, -65514, 0, 0, -65513, 0, 0, -65512, 0, 0, -65511, 0, 0, -65510, 0, 0, -65509, 0, 0, -65508, 0, 0, -65507, 0, 0, -65506, 0, 0, -65505, 0, 0, -65504, 0, 0, -65503, 0, 0, -65502, 0, 0, -65501, 0, 0, -65500, 0, 0, -65499, 0, 0, -65498, 0, 0, -65497, 0, 0, -65496, 0, 0, -65495, 0, 0, -65494, 0, 0, -65493, 0, 0, -65492, 0, 0, -65491, 0, 0, -65490, 0, 0, -65489, 0, 0, -65488, 0, 0, -65487, 0, 0, -65486, 0, 0, -65485, 0, 0, -65484, 0, 0, -65483, 0, 0, -65482, 0, 0, -65481, 0, 0, -65480, 0, 0, -65479, 0, 0, -65478, 0, 0, -65477, 0, 0, -65476, 0, 0, -65475, 0, 0, -65474, 0, 0, -65473, 0, 0, -65472, 0, 0, -65471, 0, 0, -65470, 0, 0, -65469, 0, 0, -65468, 0, 0, -65467, 0, 0, -65466, 0, 0, -65465, 0, 0, -65464, 0, 0, -65463, 0, 0, -65462, 0, 0, -65461, 0, 0, -65460, 0, 0, -65459, 0, 0, -65458, 0, 0, -65457, 0, 0, -65456, 0, 0, -65455, 0, 0, -65454, 0, 0, -65453, 0, 0, -65452, 0, 0, -65451, 0, 0, -65450, 0, 0, -65449, 0, 0, -65448, 0, 0, -65447, 0, 0, -65446, 0, 0, -65445, 0, 0, -65444, 0, 0, -65443, 0, 0, -65442, 0, 0, -65441, 0, 0, -65440, 0, 0, -65439, 0, 0, -65438, 0, 0, -65437, 0, 0, -65436, 0, 0, -65435, 0, 0, -65434, 0, 0, -65433, 0, 0, -65432, 0, 0, -65431, 0, 0, -65430, 0, 0, -65429, 0, 0, -65428, 0, 0, -65427, 0, 0, -65426, 0, 0, -65425, 0, 0, -65424, 0, 0, -65423, 0, 0, -65422, 0, 0, -65421, 0, 0, -65420, 0, 0, -65419, 0, 0, -65418, 0, 0, -65417, 0, 0, -65416, 0, 0, -65415, 0, 0, 0, 0, 0, 1, 0, 0, 2, 0, 0, 3, 0, 0, 4, 0, 0, 5, 0, 0, 6, 0, 0, 7, 0, 0, 8, 0, 0, 9, 0, 0, 10, 0, 0, 11, 0, 0, 12, 0, 0, 13, 0, 0, 14, 0, 0, 15, 0, 0, 16, 0, 0, 17, 0, 0, 18, 0, 0, 19, 0, 0, 20, 0, 0, 21, 0, 0, 22, 0, 0, 23, 0, 0, 24, 0, 0, 25, 0, 0, 26, 0, 0, 27, 0, 0, 28, 0, 0, 29, 0, 0, 30, 0, 0, 31, 0, 0, 32, 0, 0, 33, 0, 0, 34, 0, 0, 35, 0, 0, 36, 0, 0, 37, 0, 0, 38, 0, 0, 39, 0, 0, 40, 0, 0, 41, 0, 0, 42, 0, 0, 43, 0, 0, 44, 0, 0, 45, 0, 0, 46, 0, 0, 47, 0, 0, 48, 0, 0, 49, 0, 0, 50, 0, 0, 51, 0, 0, 52, 0, 0, 53, 0, 0, 54, 0, 0, 55, 0, 0, 56, 0, 0, 57, 0, 0, 58, 0, 0, 59, 0, 0, 60, 0, 0, 61, 0, 0, 62, 0, 0, 63, 0, 0, 64, 0, 0, 65, 0, 0, 66, 0, 0, 67, 0, 0, 68, 0, 0, 69, 0, 0, 70, 0, 0, 71, 0, 0, 72, 0, 0, 73, 0, 0, 74, 0, 0, 75, 0, 0, 76, 0, 0, 77, 0, 0, 78, 0, 0, 79, 0, 0, 80, 0, 0, 81, 0, 0, 82, 0, 0, 83, 0, 0, 84, 0, 0, 85, 0, 0, 86, 0, 0, 87, 0, 0, 88, 0, 0, 89, 0, 0, 90, 0, 0, 91, 0, 0, 92, 0, 0, 93, 0, 0, 94, 0, 0, 95, 0, 0, 96, 0, 0, 97, 0, 0, 98, 0, 0, 99, 0, 0, 100, 0, 0, 101, 0, 0, 102, 0, 0, 103, 0, 0, 104, 0, 0, 105, 0, 0, 106, 0, 0, 107, 0, 0, 108, 0, 0, 109, 0, 0, 110, 0, 0, 111, 0, 0, 112, 0, 0, 113, 0, 0, 114, 0, 0, 115, 0, 0, 116, 0, 0, 117, 0, 0, 118, 0, 0, 119, 0, 0, 120, 0, 0, 121, 0, 0, 65536, 0, 0, 65537, 3, 0, 65538, 3, 0, 65539, 3, 0, 65540, 3, 0, 65541, 3, 0, 65542, 3, 0, 65543, 3, 0, 65544, 3, 0, 65545, 3, 0, 65546, 3, 0, 65547, 3, 0, 65548, 3, 0, 65549, 3, 0, 65550, 3, 0, 65551, 3, 0, 65552, 3, 0, 65553, 3, 0, 65554, 3, 0, 65555, 3, 0, 65556, 3, 0, 65557, 3, 0, 65558, 0, 0, 65559, 0, 0, 65560, 3, 0, 65561, 3, 0, 65562, 3, 0, 65563, 3, 0, 65564, 3, 0, 65565, 3, 0, 65566, 3, 0, 65567, 3, 0, 65568, 3, 0, 65569, 3, 0, 65570, 3, 0, 65571, 3, 0, 65572, 3, 0, 65573, 3, 0, 65574, 3, 0, 65575, 3, 0, 65576, 3, 0, 65577, 3, 0, 65578, 3, 0, 65579, 3, 0, 65580, 3, 0, 65581, 3, 0, 65582, 3, 0, 65583, 3, 0, 65584, 3, 0, 65585, 3, 0, 65586, 3, 0, 65587, 3, 0, 65588, 3, 0, 65589, 0, 0, 65590, 0, 0, 65591, 0, 0, 65592, 0, 0, 65593, 0, 0, 65594, 0, 0, 65595, 0, 0, 65596, 0, 0, 65597, 0, 0, 65598, 0, 0, 65599, 0, 0, 65600, 0, 0, 65601, 0, 0, 65602, 0, 0, 65603, 0, 0, 65604, 0, 0, 65605, 3, 0, 65606, 3, 0, 65607, 3, 0, 65608, 3, 0, 65609, 3, 0, 65610, 3, 0, 65611, 3, 0, 65612, 3, 0, 65613, 3, 0, 65614, 3, 0, 65615, 3, 0, 65616, 3, 0, 65617, 3, 0, 65618, 3, 0, 65619, 3, 0, 65620, 3, 0, 65621, 3, 0, 65622, 3, 0, 65623, 3, 0, 65624, 3, 0, 65625, 3, 0, 65626, 3, 0, 65627, 3, 0, 65628, 3, 0, 65629, 3, 0, 65630, 3, 0, 65631, 3, 0, 65632, 3, 0, 65633, 3, 0, 65634, 3, 0, 65635, 3, 0, 65636, 3, 0, 65637, 3, 0, 65638, 3, 0, 65639, 0, 0, 65640, 0, 0, 65641, 0, 0, 65642, 0, 0, 65643, 0, 0, 65644, 0, 0, 65645, 0, 0, 65646, 0, 0, 65647, 0, 0, 65648, 0, 0, 65649, 0, 0, 65650, 0, 0, 65651, 0, 0, 65652, 0, 0, 65653, 0, 0, 65654, 0, 0, 65655, 0, 0, 65656, 0, 0, 65657, 0, 0, 131072, 0, 0, 131094, 0, 0, 131095, 0, 0, 131125, 0, 0, 131126, 0, 0, 131127, 0, 0, 131128, 0, 0, 131129, 0, 0, 131130, 0, 0, 131131, 0, 0, 131132, 0, 0, 131133, 0, 0, 131134, 0, 0, 131135, 0, 0, 131136, 0, 0, 131137, 0, 0, 131138, 0, 0, 131139, 0, 0, 131140, 0, 0, 131175, 0, 0, 131176, 0, 0, 131177, 0, 0, 131178, 0, 0, 131179, 0, 0, 131180, 0, 0, 131181, 0, 0, 131182, 0, 0, 131183, 0, 0, 131184, 0, 0, 131185, 0, 0, 131186, 0, 0, 131187, 0, 0, 131188, 0, 0, 131189, 0, 0, 131190, 0, 0, 131191, 0, 0, 131192, 0, 0, 131193, 0, 0, 196608, 0, 0, 196630, 1610612737, 0, 196631, 1, 0, 196661, 0, 0, 196662, 0, 0, 196663, 0, 0, 196664, 0, 0, 196665, 0, 0, 196666, 0, 0, 196667, 0, 0, 196668, 0, 0, 196669, 0, 0, 196670, 0, 0, 196671, 0, 0, 196672, 0, 0, 196673, 0, 0, 196674, 0, 0, 196675, 0, 0, 196676, 0, 0, 196711, 1610612737, 0, 196712, 0, 0, 196713, 0, 0, 196714, 0, 0, 196715, 0, 0, 196716, 0, 0, 196717, 0, 0, 196718, 0, 0, 196719, 0, 0, 196720, 0, 0, 196721, 0, 0, 196722, 0, 0, 196723, 0, 0, 196724, 0, 0, 196725, 0, 0, 196726, 0, 0, 196727, 0, 0, 196728, 0, 0, 196729, 0, 0, 262144, 0, 0, 262166, 1610612737, 0, 262167, 1, 0, 262197, 0, 0, 262198, 0, 0, 262199, 0, 0, 262200, 0, 0, 262201, 0, 0, 262202, 0, 0, 262203, 0, 0, 262204, 0, 0, 262205, 0, 0, 262206, 0, 0, 262207, 0, 0, 262208, 0, 0, 262209, 0, 0, 262210, 0, 0, 262211, 0, 0, 262212, 0, 0, 262247, 1610612737, 0, 262248, 0, 0, 262249, 0, 0, 262250, 0, 0, 262251, 0, 0, 262252, 0, 0, 262253, 0, 0, 262254, 0, 0, 262255, 0, 0, 262256, 0, 0, 262257, 0, 0, 262258, 0, 0, 262259, 0, 0, 262260, 0, 0, 262261, 0, 0, 262262, 0, 0, 262263, 0, 0, 262264, 0, 0, 262265, 0, 0, 327680, 0, 0, 327702, 1610612737, 0, 327703, 1, 0, 327733, 0, 0, 327734, 0, 0, 327735, 0, 0, 327736, 0, 0, 327737, 0, 0, 327738, 0, 0, 327739, 0, 0, 327740, 0, 0, 327741, 0, 0, 327742, 0, 0, 327743, 0, 0, 327744, 0, 0, 327745, 0, 0, 327746, 0, 0, 327747, 0, 0, 327748, 0, 0, 327783, 1610612737, 0, 327784, 0, 0, 327785, 0, 0, 327786, 0, 0, 327787, 0, 0, 327788, 0, 0, 327789, 0, 0, 327790, 0, 0, 327791, 0, 0, 327792, 0, 0, 327793, 0, 0, 327794, 0, 0, 327795, 0, 0, 327796, 0, 0, 327797, 0, 0, 327798, 0, 0, 327799, 0, 0, 327800, 0, 0, 327801, 0, 0, 393216, 0, 0, 393238, 1610612737, 0, 393239, 1, 0, 393269, 0, 0, 393270, 0, 0, 393271, 0, 0, 393272, 0, 0, 393273, 0, 0, 393274, 0, 0, 393275, 0, 0, 393276, 0, 0, 393277, 0, 0, 393278, 0, 0, 393279, 0, 0, 393280, 0, 0, 393281, 0, 0, 393282, 0, 0, 393283, 0, 0, 393284, 0, 0, 393319, 1610612737, 0, 393320, 0, 0, 393321, 0, 0, 393322, 0, 0, 393323, 0, 0, 393324, 0, 0, 393325, 0, 0, 393326, 0, 0, 393327, 0, 0, 393328, 0, 0, 393329, 0, 0, 393330, 0, 0, 393331, 0, 0, 393332, 0, 0, 393333, 0, 0, 393334, 0, 0, 393335, 0, 0, 393336, 0, 0, 393337, 0, 0, 458752, 0, 0, 458774, 1610612737, 0, 458775, 1, 0, 458805, 0, 0, 458806, 0, 0, 458807, 0, 0, 458808, 0, 0, 458809, 0, 0, 458810, 0, 0, 458811, 0, 0, 458812, 0, 0, 458813, 0, 0, 458814, 0, 0, 458815, 0, 0, 458816, 0, 0, 458817, 0, 0, 458818, 0, 0, 458819, 0, 0, 458820, 0, 0, 458855, 1610612737, 0, 458856, 0, 0, 458857, 0, 0, 458858, 0, 0, 458859, 0, 0, 458860, 0, 0, 458861, 0, 0, 458862, 0, 0, 458863, 0, 0, 458864, 0, 0, 458865, 0, 0, 458866, 0, 0, 458867, 0, 0, 458868, 0, 0, 458869, 0, 0, 458870, 0, 0, 458871, 0, 0, 458872, 0, 0, 458873, 0, 0, 524288, 0, 0, 524310, 1610612737, 0, 524311, 1, 0, 524341, 0, 0, 524342, 0, 0, 524343, 0, 0, 524344, 0, 0, 524345, 0, 0, 524346, 0, 0, 524347, 0, 0, 524348, 0, 0, 524349, 0, 0, 524350, 0, 0, 524351, 0, 0, 524352, 0, 0, 524353, 0, 0, 524354, 0, 0, 524355, 0, 0, 524356, 0, 0, 524391, 1610612737, 0, 524392, 0, 0, 524393, 0, 0, 524394, 0, 0, 524395, 0, 0, 524396, 0, 0, 524397, 0, 0, 524398, 0, 0, 524399, 0, 0, 524400, 0, 0, 524401, 0, 0, 524402, 0, 0, 524403, 0, 0, 524404, 0, 0, 524405, 0, 0, 524406, 0, 0, 524407, 0, 0, 524408, 0, 0, 524409, 0, 0, 589824, 0, 0, 589846, 1610612737, 0, 589847, 1, 0, 589877, 0, 0, 589878, 0, 0, 589879, 0, 0, 589880, 0, 0, 589881, 0, 0, 589882, 0, 0, 589883, 0, 0, 589884, 0, 0, 589885, 0, 0, 589886, 0, 0, 589887, 0, 0, 589888, 0, 0, 589889, 0, 0, 589890, 0, 0, 589891, 0, 0, 589892, 0, 0, 589927, 1610612737, 0, 589928, 0, 0, 589929, 0, 0, 589930, 0, 0, 589931, 0, 0, 589932, 0, 0, 589933, 0, 0, 589934, 0, 0, 589935, 0, 0, 589936, 0, 0, 589937, 0, 0, 589938, 0, 0, 589939, 0, 0, 589940, 0, 0, 589941, 0, 0, 589942, 0, 0, 589943, 0, 0, 589944, 0, 0, 589945, 0, 0, 655360, 0, 0, 655361, 0, 0, 655362, 0, 0, 655363, 0, 0, 655364, 0, 0, 655365, 0, 0, 655366, 0, 0, 655367, 0, 0, 655368, 0, 0, 655369, 0, 0, 655370, 0, 0, 655371, 0, 0, 655372, 0, 0, 655373, 0, 0, 655374, 0, 0, 655375, 0, 0, 655376, 0, 0, 655377, 0, 0, 655378, 0, 0, 655379, 0, 0, 655380, 0, 0, 655381, 0, 0, 655382, 0, 0, 655383, 0, 0, 655384, 0, 0, 655385, 0, 0, 655386, 0, 0, 655387, 0, 0, 655388, 0, 0, 655389, 0, 0, 655390, 0, 0, 655391, 0, 0, 655392, 0, 0, 655393, 0, 0, 655394, 0, 0, 655395, 0, 0, 655396, 0, 0, 655397, 0, 0, 655398, 0, 0, 655399, 0, 0, 655400, 0, 0, 655401, 0, 0, 655402, 0, 0, 655403, 0, 0, 655404, 0, 0, 655405, 0, 0, 655406, 0, 0, 655407, 0, 0, 655408, 0, 0, 655409, 0, 0, 655410, 0, 0, 655411, 0, 0, 655412, 0, 0, 655413, 0, 0, 655414, 0, 0, 655415, 0, 0, 655416, 0, 0, 655417, 0, 0, 655418, 0, 0, 655419, 0, 0, 655420, 0, 0, 655421, 0, 0, 655422, 0, 0, 655423, 0, 0, 655424, 0, 0, 655425, 0, 0, 655426, 0, 0, 655427, 0, 0, 655428, 0, 0, 655429, 0, 0, 655430, 0, 0, 655431, 0, 0, 655432, 0, 0, 655433, 0, 0, 655434, 0, 0, 655435, 0, 0, 655436, 0, 0, 655437, 0, 0, 655438, 0, 0, 655439, 0, 0, 655440, 0, 0, 655441, 0, 0, 655442, 0, 0, 655443, 0, 0, 655444, 0, 0, 655445, 0, 0, 655446, 0, 0, 655447, 0, 0, 655448, 0, 0, 655449, 0, 0, 655450, 0, 0, 655451, 0, 0, 655452, 0, 0, 655453, 0, 0, 655454, 0, 0, 655455, 0, 0, 655456, 0, 0, 655457, 0, 0, 655458, 0, 0, 655459, 0, 0, 655460, 0, 0, 655461, 0, 0, 655462, 0, 0, 655463, 0, 0, 655464, 0, 0, 655465, 0, 0, 655466, 0, 0, 655467, 0, 0, 655468, 0, 0, 655469, 0, 0, 655470, 0, 0, 655471, 0, 0, 655472, 0, 0, 655473, 0, 0, 655474, 0, 0, 655475, 0, 0, 655476, 0, 0, 655477, 0, 0, 655478, 0, 0, 655479, 0, 0, 655480, 0, 0, 655481, 0, 0, 720896, 0, 0, 720897, 0, 0, 720898, 0, 0, 720899, 0, 0, 720900, 0, 0, 720901, 0, 0, 720902, 0, 0, 720903, 0, 0, 720904, 0, 0, 720905, 0, 0, 720906, 0, 0, 720907, 0, 0, 720908, 0, 0, 720909, 0, 0, 720910, 0, 0, 720911, 0, 0, 720912, 0, 0, 720913, 0, 0, 720914, 0, 0, 720915, 0, 0, 720916, 0, 0, 720917, 0, 0, 720918, 0, 0, 720919, 0, 0, 720920, 0, 0, 720921, 0, 0, 720922, 0, 0, 720923, 0, 0, 720924, 0, 0, 720925, 0, 0, 720926, 0, 0, 720927, 0, 0, 720928, 0, 0, 720929, 0, 0, 720930, 0, 0, 720931, 0, 0, 720932, 0, 0, 720933, 0, 0, 720934, 0, 0, 720935, 0, 0, 720936, 0, 0, 720937, 0, 0, 720938, 0, 0, 720939, 0, 0, 720940, 0, 0, 720941, 0, 0, 720942, 0, 0, 720943, 0, 0, 720944, 0, 0, 720945, 0, 0, 720946, 0, 0, 720947, 0, 0, 720948, 0, 0, 720949, 0, 0, 720950, 0, 0, 720951, 0, 0, 720952, 0, 0, 720953, 0, 0, 720954, 0, 0, 720955, 0, 0, 720956, 0, 0, 720957, 0, 0, 720958, 0, 0, 720959, 0, 0, 720960, 0, 0, 720961, 0, 0, 720962, 0, 0, 720963, 0, 0, 720964, 0, 0, 720965, 0, 0, 720966, 0, 0, 720967, 0, 0, 720968, 0, 0, 720969, 0, 0, 720970, 0, 0, 720971, 0, 0, 720972, 0, 0, 720973, 0, 0, 720974, 0, 0, 720975, 0, 0, 720976, 0, 0, 720977, 0, 0, 720978, 0, 0, 720979, 0, 0, 720980, 0, 0, 720981, 0, 0, 720982, 0, 0, 720983, 0, 0, 720984, 0, 0, 720985, 0, 0, 720986, 0, 0, 720987, 0, 0, 720988, 0, 0, 720989, 0, 0, 720990, 0, 0, 720991, 0, 0, 720992, 0, 0, 720993, 0, 0, 720994, 0, 0, 720995, 0, 0, 720996, 0, 0, 720997, 0, 0, 720998, 0, 0, 720999, 0, 0, 721000, 0, 0, 721001, 0, 0, 721002, 0, 0, 721003, 0, 0, 721004, 0, 0, 721005, 0, 0, 721006, 0, 0, 721007, 0, 0, 721008, 0, 0, 721009, 0, 0, 721010, 0, 0, 721011, 0, 0, 721012, 0, 0, 721013, 0, 0, 721014, 0, 0, 721015, 0, 0, 721016, 0, 0, 721017, 0, 0 )

[node name="scenario" type="Node2D" parent="overlay" index="0"]

[node name="windowlight" type="Polygon2D" parent="overlay/scenario" index="0"]

polygon = PoolVector2Array( 32, 64, 32, 208, 144, 320, 288, 320 )
uv = PoolVector2Array(  )
color = Color( 1, 1, 1, 0.376471 )
vertex_colors = PoolColorArray(  )
offset = Vector2( 0, 0 )
antialiased = false
texture = null
texture_offset = Vector2( 0, 0 )
texture_scale = Vector2( 1, 1 )
texture_rotation_degrees = 0.0
invert_enable = false
invert_border = 100.0

[node name="initial" parent="spawns" index="0"]

position = Vector2( 672, 320 )

[node name="from_kitchen" type="Position2D" parent="spawns" index="1"]

position = Vector2( 2464, 320 )
script = ExtResource( 9 )
__meta__ = {
"_editor_icon": ExtResource( 10 )
}
face_direction = 0

[node name="from_hallway" type="Position2D" parent="spawns" index="2"]

position = Vector2( 1440, 320 )
script = ExtResource( 9 )
__meta__ = {
"_editor_icon": ExtResource( 10 )
}
face_direction = 2

[node name="force_hasha_talk" parent="scenes" index="1" instance=ExtResource( 11 )]


