[gd_scene load_steps=7 format=2]

[ext_resource path="res://assets/texture/hasha_sleeping.png" type="Texture" id=1]
[ext_resource path="res://addons/maulwed_nodes/body_animations/script.gd" type="Script" id=2]
[ext_resource path="res://addons/maulwed_nodes/body_animations/icon.png" type="Texture" id=3]

[sub_resource type="Animation" id=1]

length = 1.2
loop = true
step = 0.2
tracks/0/type = "value"
tracks/0/path = NodePath(".:frame")
tracks/0/interp = 1
tracks/0/loop_wrap = true
tracks/0/imported = false
tracks/0/enabled = true
tracks/0/keys = {
"times": PoolRealArray( 0, 0.2, 0.4, 0.6, 0.8, 1 ),
"transitions": PoolRealArray( 1, 1, 1, 1, 1, 1 ),
"update": 1,
"values": [ 0, 1, 2, 3, 2, 1 ]
}

[sub_resource type="Animation" id=2]

length = 1.0
loop = true
step = 0.1

[sub_resource type="Animation" id=3]

length = 1.0
loop = true
step = 0.1

[node name="sprite" type="Sprite" index="0"]

texture = ExtResource( 1 )
offset = Vector2( 0, -80 )
hframes = 4
frame = 3
_sections_unfolded = [ "Animation", "Offset" ]

[node name="animations" type="AnimationPlayer" parent="." index="0"]

root_node = NodePath("..")
autoplay = ""
playback_process_mode = 1
playback_default_blend_time = 0.0
playback_speed = 1.0
anims/idle = SubResource( 1 )
anims/run = SubResource( 2 )
anims/walk = SubResource( 3 )
blend_times = [  ]
script = ExtResource( 2 )
__meta__ = {
"_editor_icon": ExtResource( 3 )
}


