[gd_scene load_steps=3 format=2]

[ext_resource path="res://domains/bodies/npc1.tscn" type="PackedScene" id=1]
[ext_resource path="res://domains/sprites/clyde.tscn" type="PackedScene" id=2]

[node name="clyde" instance=ExtResource( 1 )]

interactable = 2

[node name="appearance" parent="." index="2"]

_sections_unfolded = [ "Animation", "Material", "Transform", "Visibility" ]

[node name="sprite" parent="appearance" index="0" instance=ExtResource( 2 )]


