[gd_scene load_steps=3 format=2]

[ext_resource path="res://assets/texture/choice-arrow.png" type="Texture" id=1]

[sub_resource type="Animation" id=1]

resource_name = "idle"
length = 0.4
loop = true
step = 0.2
tracks/0/type = "value"
tracks/0/path = NodePath(".:frame")
tracks/0/interp = 1
tracks/0/loop_wrap = true
tracks/0/imported = false
tracks/0/enabled = true
tracks/0/keys = {
"times": PoolRealArray( 0, 0.2 ),
"transitions": PoolRealArray( 1, 1 ),
"update": 1,
"values": [ 0, 1 ]
}

[node name="cursor" type="Sprite"]

position = Vector2( 48, 32 )
texture = ExtResource( 1 )
centered = false
offset = Vector2( -24, -6 )
hframes = 2
_sections_unfolded = [ "Animation", "Offset", "Rect", "Region", "Transform", "Visibility" ]

[node name="animation" type="AnimationPlayer" parent="." index="0"]

root_node = NodePath("..")
autoplay = "idle"
playback_process_mode = 1
playback_default_blend_time = 0.0
playback_speed = 1.0
anims/idle = SubResource( 1 )
blend_times = [  ]


