[gd_scene load_steps=4 format=2]

[ext_resource path="res://common/speaker.gd" type="Script" id=1]
[ext_resource path="res://assets/texture/speaker-box.png" type="Texture" id=2]
[ext_resource path="res://assets/font/munro_32.tres" type="DynamicFont" id=3]

[node name="speaker" type="Node2D"]

script = ExtResource( 1 )

[node name="name_box" type="Sprite" parent="." index="0"]

self_modulate = Color( 0.40625, 0.293579, 0.293579, 1 )
texture = ExtResource( 2 )
centered = false
offset = Vector2( -32, 0 )
_sections_unfolded = [ "Material", "Offset", "Rect", "Transform", "Visibility" ]

[node name="name_text" type="Label" parent="name_box" index="0"]

anchor_left = 0.0
anchor_top = 0.0
anchor_right = 0.0
anchor_bottom = 0.0
margin_left = 96.0
margin_top = 13.0
margin_right = 232.0
margin_bottom = 39.0
rect_pivot_offset = Vector2( 0, 0 )
rect_clip_content = false
mouse_filter = 2
mouse_default_cursor_shape = 0
size_flags_horizontal = 1
size_flags_vertical = 4
custom_fonts/font = ExtResource( 3 )
custom_constants/shadow_offset_x = 2
custom_constants/shadow_offset_y = 2
text = "Mrs. Rattington"
valign = 1
clip_text = true
percent_visible = 1.0
lines_skipped = 0
max_lines_visible = 1
_sections_unfolded = [ "custom_colors" ]


