[gd_scene load_steps=4 format=2]

[ext_resource path="res://domains/scene.gd" type="Script" id=1]
[ext_resource path="res://domains/commands/speech.tscn" type="PackedScene" id=2]
[ext_resource path="res://domains/commands/change_map.tscn" type="PackedScene" id=3]

[node name="first_cycle_nudge" type="Node2D" index="0"]

script = ExtResource( 1 )
__meta__ = {
"_edit_group_": true
}
conditional_statements = "pe.cycles == 0
pe.quest != 2"
conditions = null
time_based = true
time_window_start = 17.0
time_window_end = 24.0
on_interact = false
on_step = false
on_auto = true
one_time_only = true

[node name="ishould" parent="." index="0" instance=ExtResource( 2 )]

text = "Damn, look at the time!

I should head to Hash's place."
speaker_name = "Tyche"

[node name="change_map" parent="." index="1" instance=ExtResource( 3 )]

map_id = "west_f1"
spawn_point = "from_woolst"


